%TF.GenerationSoftware,KiCad,Pcbnew,5.0.2-bee76a0~70~ubuntu18.04.1*%
%TF.CreationDate,2020-04-19T17:54:42+02:00*%
%TF.ProjectId,PflanzenServer_LOLIN32,50666c61-6e7a-4656-9e53-65727665725f,rev?*%
%TF.SameCoordinates,Original*%
%TF.FileFunction,Copper,L2,Bot*%
%TF.FilePolarity,Positive*%
%FSLAX46Y46*%
G04 Gerber Fmt 4.6, Leading zero omitted, Abs format (unit mm)*
G04 Created by KiCad (PCBNEW 5.0.2-bee76a0~70~ubuntu18.04.1) date So 19 Apr 2020 17:54:42 CEST*
%MOMM*%
%LPD*%
G01*
G04 APERTURE LIST*
%ADD10R,1.600000X1.600000*%
%ADD11C,1.600000*%
%ADD12R,1.800000X1.800000*%
%ADD13C,1.800000*%
%ADD14O,1.600000X1.600000*%
%ADD15O,2.540000X1.270000*%
%ADD16R,2.540000X1.270000*%
%ADD17O,1.270000X2.540000*%
%ADD18C,5.000000*%
%ADD19C,1.400000*%
%ADD20C,0.500000*%
%ADD21C,1.000000*%
G04 APERTURE END LIST*
D10*
X92710000Y-116840000D03*
D11*
X92710000Y-114340000D03*
D12*
X93980000Y-99060000D03*
D13*
X91440000Y-99060000D03*
X78740000Y-99060000D03*
D12*
X81280000Y-99060000D03*
X68580000Y-99060000D03*
D13*
X66040000Y-99060000D03*
D11*
X119380000Y-109220000D03*
D14*
X109220000Y-109220000D03*
X104140000Y-114300000D03*
D11*
X114300000Y-114300000D03*
X111760000Y-119380000D03*
D14*
X101600000Y-119380000D03*
D15*
X37846000Y-106172000D03*
D16*
X37846000Y-103632000D03*
D15*
X37846000Y-108712000D03*
X37846000Y-111252000D03*
X37846000Y-113792000D03*
X37846000Y-116332000D03*
X37846000Y-118872000D03*
X37846000Y-121412000D03*
X60706000Y-121412000D03*
X60706000Y-118872000D03*
X60706000Y-116332000D03*
X60706000Y-113792000D03*
X60706000Y-111252000D03*
X60706000Y-108712000D03*
X60706000Y-106172000D03*
X60706000Y-103632000D03*
D17*
X127000000Y-104140000D03*
X124460000Y-104140000D03*
X121920000Y-104140000D03*
X119380000Y-104140000D03*
X116840000Y-104140000D03*
X114300000Y-104140000D03*
X111760000Y-104140000D03*
X109220000Y-104140000D03*
X106680000Y-104140000D03*
X104140000Y-104140000D03*
X101600000Y-104140000D03*
X99060000Y-104140000D03*
X116840000Y-127000000D03*
X114300000Y-127000000D03*
X111760000Y-127000000D03*
X109220000Y-127000000D03*
X106680000Y-127000000D03*
X104140000Y-127000000D03*
X101600000Y-127000000D03*
X99060000Y-127000000D03*
X96520000Y-127000000D03*
X93980000Y-127000000D03*
X91440000Y-127000000D03*
X88900000Y-127000000D03*
X86360000Y-127000000D03*
X83820000Y-127000000D03*
X81280000Y-127000000D03*
X78740000Y-127000000D03*
X96520000Y-104140000D03*
X93980000Y-104140000D03*
X91440000Y-104140000D03*
X88900000Y-104140000D03*
X86360000Y-104140000D03*
X83820000Y-104140000D03*
X81280000Y-104140000D03*
X78740000Y-104140000D03*
D11*
X87630000Y-119380000D03*
X87630000Y-114380000D03*
D18*
X114300000Y-134620000D03*
X114300000Y-96520000D03*
X48260000Y-134620000D03*
X48260000Y-96520000D03*
D19*
X51435000Y-100965000D03*
D20*
X106680000Y-104140000D02*
X106680000Y-104775000D01*
X106680000Y-104140000D02*
X106680000Y-98425000D01*
X106680000Y-98425000D02*
X104140000Y-95885000D01*
X104140000Y-95885000D02*
X56515000Y-95885000D01*
X56515000Y-95885000D02*
X51435000Y-100965000D01*
X51435000Y-100965000D02*
X51435000Y-100965000D01*
X57785000Y-97155000D02*
X43815000Y-111125000D01*
X101600000Y-97155000D02*
X57785000Y-97155000D01*
X104140000Y-104140000D02*
X104140000Y-99695000D01*
X43815000Y-111125000D02*
X38100000Y-111125000D01*
X104140000Y-99695000D02*
X101600000Y-97155000D01*
X46355000Y-116205000D02*
X38100000Y-116205000D01*
X48217020Y-116205000D02*
X46355000Y-116205000D01*
X101600000Y-104775000D02*
X95250000Y-111125000D01*
X64092990Y-114977010D02*
X49445010Y-114977010D01*
X101600000Y-104140000D02*
X101600000Y-104775000D01*
X49445010Y-114977010D02*
X48217020Y-116205000D01*
X95250000Y-111125000D02*
X67945000Y-111125000D01*
X67945000Y-111125000D02*
X64092990Y-114977010D01*
X45085000Y-113665000D02*
X38100000Y-113665000D01*
X99060000Y-104775000D02*
X93980000Y-109855000D01*
X99060000Y-104140000D02*
X99060000Y-104775000D01*
X93980000Y-109855000D02*
X66675000Y-109855000D01*
X66675000Y-109855000D02*
X64008000Y-112522000D01*
X64008000Y-112522000D02*
X46228000Y-112522000D01*
X46228000Y-112522000D02*
X45085000Y-113665000D01*
X62730000Y-121285000D02*
X60960000Y-121285000D01*
X72255000Y-130810000D02*
X62730000Y-121285000D01*
X114300000Y-128270000D02*
X111760000Y-130810000D01*
X111760000Y-130810000D02*
X72255000Y-130810000D01*
X114300000Y-127000000D02*
X114300000Y-128270000D01*
D21*
X91440000Y-99060000D02*
X87630000Y-99060000D01*
X86360000Y-100330000D02*
X86360000Y-104140000D01*
X87630000Y-99060000D02*
X86360000Y-100330000D01*
X97790000Y-116840000D02*
X92710000Y-116840000D01*
X109220000Y-104140000D02*
X109220000Y-105410000D01*
X109220000Y-105410000D02*
X97790000Y-116840000D01*
D20*
X62865000Y-111125000D02*
X60960000Y-111125000D01*
X65405000Y-108585000D02*
X62865000Y-111125000D01*
X88765000Y-108585000D02*
X65405000Y-108585000D01*
X91440000Y-104140000D02*
X91440000Y-105910000D01*
X91440000Y-105910000D02*
X88765000Y-108585000D01*
X63500000Y-108585000D02*
X60960000Y-108585000D01*
X64770000Y-107315000D02*
X63500000Y-108585000D01*
X86995000Y-107315000D02*
X64770000Y-107315000D01*
X88900000Y-104140000D02*
X88900000Y-105410000D01*
X88900000Y-105410000D02*
X86995000Y-107315000D01*
X119380000Y-109220000D02*
X124460000Y-109220000D01*
X127000000Y-106680000D02*
X127000000Y-104140000D01*
X124460000Y-109220000D02*
X127000000Y-106680000D01*
X114300000Y-114300000D02*
X114300000Y-104140000D01*
X111760000Y-119380000D02*
X111760000Y-104140000D01*
M02*
