(kicad_pcb (version 20171130) (host pcbnew 5.0.2-bee76a0~70~ubuntu18.04.1)

  (general
    (thickness 1.6)
    (drawings 17)
    (tracks 130)
    (zones 0)
    (modules 10)
    (nets 41)
  )

  (page A4)
  (layers
    (0 F.Cu signal)
    (31 B.Cu signal)
    (32 B.Adhes user)
    (33 F.Adhes user)
    (34 B.Paste user)
    (35 F.Paste user)
    (36 B.SilkS user)
    (37 F.SilkS user)
    (38 B.Mask user)
    (39 F.Mask user)
    (40 Dwgs.User user)
    (41 Cmts.User user)
    (42 Eco1.User user)
    (43 Eco2.User user)
    (44 Edge.Cuts user)
    (45 Margin user)
    (46 B.CrtYd user)
    (47 F.CrtYd user)
    (48 B.Fab user)
    (49 F.Fab user)
  )

  (setup
    (last_trace_width 0.5)
    (trace_clearance 0.3)
    (zone_clearance 0.508)
    (zone_45_only no)
    (trace_min 0.2)
    (segment_width 0.2)
    (edge_width 0.15)
    (via_size 1)
    (via_drill 0.6)
    (via_min_size 0.4)
    (via_min_drill 0.3)
    (uvia_size 0.3)
    (uvia_drill 0.1)
    (uvias_allowed no)
    (uvia_min_size 0.2)
    (uvia_min_drill 0.1)
    (pcb_text_width 0.3)
    (pcb_text_size 1.5 1.5)
    (mod_edge_width 0.15)
    (mod_text_size 1 1)
    (mod_text_width 0.15)
    (pad_size 1.6 1.6)
    (pad_drill 0.8)
    (pad_to_mask_clearance 0.051)
    (solder_mask_min_width 0.25)
    (aux_axis_origin 0 0)
    (visible_elements FFFFFF7F)
    (pcbplotparams
      (layerselection 0x010fc_ffffffff)
      (usegerberextensions false)
      (usegerberattributes true)
      (usegerberadvancedattributes false)
      (creategerberjobfile false)
      (excludeedgelayer true)
      (linewidth 0.100000)
      (plotframeref false)
      (viasonmask false)
      (mode 1)
      (useauxorigin false)
      (hpglpennumber 1)
      (hpglpenspeed 20)
      (hpglpendiameter 15.000000)
      (psnegative false)
      (psa4output false)
      (plotreference true)
      (plotvalue true)
      (plotinvisibletext false)
      (padsonsilk false)
      (subtractmaskfromsilk false)
      (outputformat 1)
      (mirror false)
      (drillshape 0)
      (scaleselection 1)
      (outputdirectory "Gerber/"))
  )

  (net 0 "")
  (net 1 "Net-(U1-Pad35)")
  (net 2 GNDD)
  (net 3 "Net-(U1-Pad33)")
  (net 4 "Net-(U1-Pad32)")
  (net 5 "Net-(U1-Pad28)")
  (net 6 "Net-(U1-Pad27)")
  (net 7 "Net-(U1-Pad26)")
  (net 8 "Net-(U1-Pad25)")
  (net 9 +5V)
  (net 10 "Net-(U1-Pad14)")
  (net 11 "Net-(U1-Pad13)")
  (net 12 "Net-(U1-Pad12)")
  (net 13 "Net-(U1-Pad11)")
  (net 14 "Net-(U1-Pad10)")
  (net 15 "Net-(U1-Pad9)")
  (net 16 "Net-(U1-Pad8)")
  (net 17 "Net-(U1-Pad7)")
  (net 18 "Net-(U1-Pad6)")
  (net 19 "Net-(U1-Pad5)")
  (net 20 "Net-(U1-Pad4)")
  (net 21 "Net-(U1-Pad3)")
  (net 22 "Net-(U1-Pad2)")
  (net 23 +3V3)
  (net 24 "Net-(U1-Pad22)")
  (net 25 "Net-(U1-Pad21)")
  (net 26 "Net-(U1-Pad19)")
  (net 27 "Net-(U1-Pad18)")
  (net 28 "Net-(U2-Pad2)")
  (net 29 "Net-(U2-Pad1)")
  (net 30 "Net-(U2-Pad3)")
  (net 31 "Net-(U2-Pad11)")
  (net 32 "Net-(U2-Pad12)")
  (net 33 "Net-(U2-Pad15)")
  (net 34 "Net-(U2-Pad16)")
  (net 35 "Net-(R1-Pad1)")
  (net 36 "Net-(R2-Pad1)")
  (net 37 "Net-(R3-Pad1)")
  (net 38 "Net-(D1-Pad1)")
  (net 39 "Net-(D2-Pad1)")
  (net 40 "Net-(D3-Pad1)")

  (net_class Default "Dies ist die voreingestellte Netzklasse."
    (clearance 0.3)
    (trace_width 0.5)
    (via_dia 1)
    (via_drill 0.6)
    (uvia_dia 0.3)
    (uvia_drill 0.1)
    (add_net +3V3)
    (add_net +5V)
    (add_net GNDD)
    (add_net "Net-(D1-Pad1)")
    (add_net "Net-(D2-Pad1)")
    (add_net "Net-(D3-Pad1)")
    (add_net "Net-(R1-Pad1)")
    (add_net "Net-(R2-Pad1)")
    (add_net "Net-(R3-Pad1)")
    (add_net "Net-(U1-Pad10)")
    (add_net "Net-(U1-Pad11)")
    (add_net "Net-(U1-Pad12)")
    (add_net "Net-(U1-Pad13)")
    (add_net "Net-(U1-Pad14)")
    (add_net "Net-(U1-Pad18)")
    (add_net "Net-(U1-Pad19)")
    (add_net "Net-(U1-Pad2)")
    (add_net "Net-(U1-Pad21)")
    (add_net "Net-(U1-Pad22)")
    (add_net "Net-(U1-Pad25)")
    (add_net "Net-(U1-Pad26)")
    (add_net "Net-(U1-Pad27)")
    (add_net "Net-(U1-Pad28)")
    (add_net "Net-(U1-Pad3)")
    (add_net "Net-(U1-Pad32)")
    (add_net "Net-(U1-Pad33)")
    (add_net "Net-(U1-Pad35)")
    (add_net "Net-(U1-Pad4)")
    (add_net "Net-(U1-Pad5)")
    (add_net "Net-(U1-Pad6)")
    (add_net "Net-(U1-Pad7)")
    (add_net "Net-(U1-Pad8)")
    (add_net "Net-(U1-Pad9)")
    (add_net "Net-(U2-Pad1)")
    (add_net "Net-(U2-Pad11)")
    (add_net "Net-(U2-Pad12)")
    (add_net "Net-(U2-Pad15)")
    (add_net "Net-(U2-Pad16)")
    (add_net "Net-(U2-Pad2)")
    (add_net "Net-(U2-Pad3)")
  )

  (module Capacitor_THT:CP_Radial_D5.0mm_P2.50mm (layer F.Cu) (tedit 5E9794D1) (tstamp 5EC6F697)
    (at 92.71 116.84 90)
    (descr "CP, Radial series, Radial, pin pitch=2.50mm, , diameter=5mm, Electrolytic Capacitor")
    (tags "CP Radial series Radial pin pitch 2.50mm  diameter 5mm Electrolytic Capacitor")
    (path /5E98EB68)
    (fp_text reference C1 (at -2.54 1.27 180) (layer F.SilkS)
      (effects (font (size 1 1) (thickness 0.15)))
    )
    (fp_text value 82µ/16 (at 5.715 -0.635 180) (layer F.Fab)
      (effects (font (size 1 1) (thickness 0.15)))
    )
    (fp_circle (center 1.25 0) (end 3.75 0) (layer F.Fab) (width 0.1))
    (fp_circle (center 1.25 0) (end 3.87 0) (layer F.SilkS) (width 0.12))
    (fp_circle (center 1.25 0) (end 4 0) (layer F.CrtYd) (width 0.05))
    (fp_line (start -0.883605 -1.0875) (end -0.383605 -1.0875) (layer F.Fab) (width 0.1))
    (fp_line (start -0.633605 -1.3375) (end -0.633605 -0.8375) (layer F.Fab) (width 0.1))
    (fp_line (start 1.25 -2.58) (end 1.25 2.58) (layer F.SilkS) (width 0.12))
    (fp_line (start 1.29 -2.58) (end 1.29 2.58) (layer F.SilkS) (width 0.12))
    (fp_line (start 1.33 -2.579) (end 1.33 2.579) (layer F.SilkS) (width 0.12))
    (fp_line (start 1.37 -2.578) (end 1.37 2.578) (layer F.SilkS) (width 0.12))
    (fp_line (start 1.41 -2.576) (end 1.41 2.576) (layer F.SilkS) (width 0.12))
    (fp_line (start 1.45 -2.573) (end 1.45 2.573) (layer F.SilkS) (width 0.12))
    (fp_line (start 1.49 -2.569) (end 1.49 -1.04) (layer F.SilkS) (width 0.12))
    (fp_line (start 1.49 1.04) (end 1.49 2.569) (layer F.SilkS) (width 0.12))
    (fp_line (start 1.53 -2.565) (end 1.53 -1.04) (layer F.SilkS) (width 0.12))
    (fp_line (start 1.53 1.04) (end 1.53 2.565) (layer F.SilkS) (width 0.12))
    (fp_line (start 1.57 -2.561) (end 1.57 -1.04) (layer F.SilkS) (width 0.12))
    (fp_line (start 1.57 1.04) (end 1.57 2.561) (layer F.SilkS) (width 0.12))
    (fp_line (start 1.61 -2.556) (end 1.61 -1.04) (layer F.SilkS) (width 0.12))
    (fp_line (start 1.61 1.04) (end 1.61 2.556) (layer F.SilkS) (width 0.12))
    (fp_line (start 1.65 -2.55) (end 1.65 -1.04) (layer F.SilkS) (width 0.12))
    (fp_line (start 1.65 1.04) (end 1.65 2.55) (layer F.SilkS) (width 0.12))
    (fp_line (start 1.69 -2.543) (end 1.69 -1.04) (layer F.SilkS) (width 0.12))
    (fp_line (start 1.69 1.04) (end 1.69 2.543) (layer F.SilkS) (width 0.12))
    (fp_line (start 1.73 -2.536) (end 1.73 -1.04) (layer F.SilkS) (width 0.12))
    (fp_line (start 1.73 1.04) (end 1.73 2.536) (layer F.SilkS) (width 0.12))
    (fp_line (start 1.77 -2.528) (end 1.77 -1.04) (layer F.SilkS) (width 0.12))
    (fp_line (start 1.77 1.04) (end 1.77 2.528) (layer F.SilkS) (width 0.12))
    (fp_line (start 1.81 -2.52) (end 1.81 -1.04) (layer F.SilkS) (width 0.12))
    (fp_line (start 1.81 1.04) (end 1.81 2.52) (layer F.SilkS) (width 0.12))
    (fp_line (start 1.85 -2.511) (end 1.85 -1.04) (layer F.SilkS) (width 0.12))
    (fp_line (start 1.85 1.04) (end 1.85 2.511) (layer F.SilkS) (width 0.12))
    (fp_line (start 1.89 -2.501) (end 1.89 -1.04) (layer F.SilkS) (width 0.12))
    (fp_line (start 1.89 1.04) (end 1.89 2.501) (layer F.SilkS) (width 0.12))
    (fp_line (start 1.93 -2.491) (end 1.93 -1.04) (layer F.SilkS) (width 0.12))
    (fp_line (start 1.93 1.04) (end 1.93 2.491) (layer F.SilkS) (width 0.12))
    (fp_line (start 1.971 -2.48) (end 1.971 -1.04) (layer F.SilkS) (width 0.12))
    (fp_line (start 1.971 1.04) (end 1.971 2.48) (layer F.SilkS) (width 0.12))
    (fp_line (start 2.011 -2.468) (end 2.011 -1.04) (layer F.SilkS) (width 0.12))
    (fp_line (start 2.011 1.04) (end 2.011 2.468) (layer F.SilkS) (width 0.12))
    (fp_line (start 2.051 -2.455) (end 2.051 -1.04) (layer F.SilkS) (width 0.12))
    (fp_line (start 2.051 1.04) (end 2.051 2.455) (layer F.SilkS) (width 0.12))
    (fp_line (start 2.091 -2.442) (end 2.091 -1.04) (layer F.SilkS) (width 0.12))
    (fp_line (start 2.091 1.04) (end 2.091 2.442) (layer F.SilkS) (width 0.12))
    (fp_line (start 2.131 -2.428) (end 2.131 -1.04) (layer F.SilkS) (width 0.12))
    (fp_line (start 2.131 1.04) (end 2.131 2.428) (layer F.SilkS) (width 0.12))
    (fp_line (start 2.171 -2.414) (end 2.171 -1.04) (layer F.SilkS) (width 0.12))
    (fp_line (start 2.171 1.04) (end 2.171 2.414) (layer F.SilkS) (width 0.12))
    (fp_line (start 2.211 -2.398) (end 2.211 -1.04) (layer F.SilkS) (width 0.12))
    (fp_line (start 2.211 1.04) (end 2.211 2.398) (layer F.SilkS) (width 0.12))
    (fp_line (start 2.251 -2.382) (end 2.251 -1.04) (layer F.SilkS) (width 0.12))
    (fp_line (start 2.251 1.04) (end 2.251 2.382) (layer F.SilkS) (width 0.12))
    (fp_line (start 2.291 -2.365) (end 2.291 -1.04) (layer F.SilkS) (width 0.12))
    (fp_line (start 2.291 1.04) (end 2.291 2.365) (layer F.SilkS) (width 0.12))
    (fp_line (start 2.331 -2.348) (end 2.331 -1.04) (layer F.SilkS) (width 0.12))
    (fp_line (start 2.331 1.04) (end 2.331 2.348) (layer F.SilkS) (width 0.12))
    (fp_line (start 2.371 -2.329) (end 2.371 -1.04) (layer F.SilkS) (width 0.12))
    (fp_line (start 2.371 1.04) (end 2.371 2.329) (layer F.SilkS) (width 0.12))
    (fp_line (start 2.411 -2.31) (end 2.411 -1.04) (layer F.SilkS) (width 0.12))
    (fp_line (start 2.411 1.04) (end 2.411 2.31) (layer F.SilkS) (width 0.12))
    (fp_line (start 2.451 -2.29) (end 2.451 -1.04) (layer F.SilkS) (width 0.12))
    (fp_line (start 2.451 1.04) (end 2.451 2.29) (layer F.SilkS) (width 0.12))
    (fp_line (start 2.491 -2.268) (end 2.491 -1.04) (layer F.SilkS) (width 0.12))
    (fp_line (start 2.491 1.04) (end 2.491 2.268) (layer F.SilkS) (width 0.12))
    (fp_line (start 2.531 -2.247) (end 2.531 -1.04) (layer F.SilkS) (width 0.12))
    (fp_line (start 2.531 1.04) (end 2.531 2.247) (layer F.SilkS) (width 0.12))
    (fp_line (start 2.571 -2.224) (end 2.571 -1.04) (layer F.SilkS) (width 0.12))
    (fp_line (start 2.571 1.04) (end 2.571 2.224) (layer F.SilkS) (width 0.12))
    (fp_line (start 2.611 -2.2) (end 2.611 -1.04) (layer F.SilkS) (width 0.12))
    (fp_line (start 2.611 1.04) (end 2.611 2.2) (layer F.SilkS) (width 0.12))
    (fp_line (start 2.651 -2.175) (end 2.651 -1.04) (layer F.SilkS) (width 0.12))
    (fp_line (start 2.651 1.04) (end 2.651 2.175) (layer F.SilkS) (width 0.12))
    (fp_line (start 2.691 -2.149) (end 2.691 -1.04) (layer F.SilkS) (width 0.12))
    (fp_line (start 2.691 1.04) (end 2.691 2.149) (layer F.SilkS) (width 0.12))
    (fp_line (start 2.731 -2.122) (end 2.731 -1.04) (layer F.SilkS) (width 0.12))
    (fp_line (start 2.731 1.04) (end 2.731 2.122) (layer F.SilkS) (width 0.12))
    (fp_line (start 2.771 -2.095) (end 2.771 -1.04) (layer F.SilkS) (width 0.12))
    (fp_line (start 2.771 1.04) (end 2.771 2.095) (layer F.SilkS) (width 0.12))
    (fp_line (start 2.811 -2.065) (end 2.811 -1.04) (layer F.SilkS) (width 0.12))
    (fp_line (start 2.811 1.04) (end 2.811 2.065) (layer F.SilkS) (width 0.12))
    (fp_line (start 2.851 -2.035) (end 2.851 -1.04) (layer F.SilkS) (width 0.12))
    (fp_line (start 2.851 1.04) (end 2.851 2.035) (layer F.SilkS) (width 0.12))
    (fp_line (start 2.891 -2.004) (end 2.891 -1.04) (layer F.SilkS) (width 0.12))
    (fp_line (start 2.891 1.04) (end 2.891 2.004) (layer F.SilkS) (width 0.12))
    (fp_line (start 2.931 -1.971) (end 2.931 -1.04) (layer F.SilkS) (width 0.12))
    (fp_line (start 2.931 1.04) (end 2.931 1.971) (layer F.SilkS) (width 0.12))
    (fp_line (start 2.971 -1.937) (end 2.971 -1.04) (layer F.SilkS) (width 0.12))
    (fp_line (start 2.971 1.04) (end 2.971 1.937) (layer F.SilkS) (width 0.12))
    (fp_line (start 3.011 -1.901) (end 3.011 -1.04) (layer F.SilkS) (width 0.12))
    (fp_line (start 3.011 1.04) (end 3.011 1.901) (layer F.SilkS) (width 0.12))
    (fp_line (start 3.051 -1.864) (end 3.051 -1.04) (layer F.SilkS) (width 0.12))
    (fp_line (start 3.051 1.04) (end 3.051 1.864) (layer F.SilkS) (width 0.12))
    (fp_line (start 3.091 -1.826) (end 3.091 -1.04) (layer F.SilkS) (width 0.12))
    (fp_line (start 3.091 1.04) (end 3.091 1.826) (layer F.SilkS) (width 0.12))
    (fp_line (start 3.131 -1.785) (end 3.131 -1.04) (layer F.SilkS) (width 0.12))
    (fp_line (start 3.131 1.04) (end 3.131 1.785) (layer F.SilkS) (width 0.12))
    (fp_line (start 3.171 -1.743) (end 3.171 -1.04) (layer F.SilkS) (width 0.12))
    (fp_line (start 3.171 1.04) (end 3.171 1.743) (layer F.SilkS) (width 0.12))
    (fp_line (start 3.211 -1.699) (end 3.211 -1.04) (layer F.SilkS) (width 0.12))
    (fp_line (start 3.211 1.04) (end 3.211 1.699) (layer F.SilkS) (width 0.12))
    (fp_line (start 3.251 -1.653) (end 3.251 -1.04) (layer F.SilkS) (width 0.12))
    (fp_line (start 3.251 1.04) (end 3.251 1.653) (layer F.SilkS) (width 0.12))
    (fp_line (start 3.291 -1.605) (end 3.291 -1.04) (layer F.SilkS) (width 0.12))
    (fp_line (start 3.291 1.04) (end 3.291 1.605) (layer F.SilkS) (width 0.12))
    (fp_line (start 3.331 -1.554) (end 3.331 -1.04) (layer F.SilkS) (width 0.12))
    (fp_line (start 3.331 1.04) (end 3.331 1.554) (layer F.SilkS) (width 0.12))
    (fp_line (start 3.371 -1.5) (end 3.371 -1.04) (layer F.SilkS) (width 0.12))
    (fp_line (start 3.371 1.04) (end 3.371 1.5) (layer F.SilkS) (width 0.12))
    (fp_line (start 3.411 -1.443) (end 3.411 -1.04) (layer F.SilkS) (width 0.12))
    (fp_line (start 3.411 1.04) (end 3.411 1.443) (layer F.SilkS) (width 0.12))
    (fp_line (start 3.451 -1.383) (end 3.451 -1.04) (layer F.SilkS) (width 0.12))
    (fp_line (start 3.451 1.04) (end 3.451 1.383) (layer F.SilkS) (width 0.12))
    (fp_line (start 3.491 -1.319) (end 3.491 -1.04) (layer F.SilkS) (width 0.12))
    (fp_line (start 3.491 1.04) (end 3.491 1.319) (layer F.SilkS) (width 0.12))
    (fp_line (start 3.531 -1.251) (end 3.531 -1.04) (layer F.SilkS) (width 0.12))
    (fp_line (start 3.531 1.04) (end 3.531 1.251) (layer F.SilkS) (width 0.12))
    (fp_line (start 3.571 -1.178) (end 3.571 1.178) (layer F.SilkS) (width 0.12))
    (fp_line (start 3.611 -1.098) (end 3.611 1.098) (layer F.SilkS) (width 0.12))
    (fp_line (start 3.651 -1.011) (end 3.651 1.011) (layer F.SilkS) (width 0.12))
    (fp_line (start 3.691 -0.915) (end 3.691 0.915) (layer F.SilkS) (width 0.12))
    (fp_line (start 3.731 -0.805) (end 3.731 0.805) (layer F.SilkS) (width 0.12))
    (fp_line (start 3.771 -0.677) (end 3.771 0.677) (layer F.SilkS) (width 0.12))
    (fp_line (start 3.811 -0.518) (end 3.811 0.518) (layer F.SilkS) (width 0.12))
    (fp_line (start 3.851 -0.284) (end 3.851 0.284) (layer F.SilkS) (width 0.12))
    (fp_line (start -1.554775 -1.475) (end -1.054775 -1.475) (layer F.SilkS) (width 0.12))
    (fp_line (start -1.304775 -1.725) (end -1.304775 -1.225) (layer F.SilkS) (width 0.12))
    (fp_text user %R (at 1.25 0 90) (layer F.Fab)
      (effects (font (size 1 1) (thickness 0.15)))
    )
    (pad 1 thru_hole rect (at 0 0 90) (size 1.6 1.6) (drill 0.8) (layers *.Cu *.Mask)
      (net 23 +3V3))
    (pad 2 thru_hole circle (at 2.5 0 90) (size 1.6 1.6) (drill 0.8) (layers *.Cu *.Mask)
      (net 2 GNDD))
    (model ${KISYS3DMOD}/Capacitor_THT.3dshapes/CP_Radial_D5.0mm_P2.50mm.wrl
      (at (xyz 0 0 0))
      (scale (xyz 1 1 1))
      (rotate (xyz 0 0 0))
    )
  )

  (module LED_THT:LED_D5.0mm_Clear (layer F.Cu) (tedit 5A6C9BC0) (tstamp 5EC6F6BE)
    (at 93.98 99.06 180)
    (descr "LED, diameter 5.0mm, 2 pins, http://cdn-reichelt.de/documents/datenblatt/A500/LL-504BC2E-009.pdf")
    (tags "LED diameter 5.0mm 2 pins")
    (path /5E9820B7)
    (fp_text reference D1 (at -3.302 -1.27 180) (layer F.SilkS)
      (effects (font (size 1 1) (thickness 0.15)))
    )
    (fp_text value Blue (at -5.08 2.54 180) (layer F.Fab)
      (effects (font (size 1 1) (thickness 0.15)))
    )
    (fp_text user %R (at 1.25 0 180) (layer F.Fab)
      (effects (font (size 0.8 0.8) (thickness 0.2)))
    )
    (fp_line (start -1.23 -1.469694) (end -1.23 1.469694) (layer F.Fab) (width 0.1))
    (fp_line (start -1.29 -1.545) (end -1.29 1.545) (layer F.SilkS) (width 0.12))
    (fp_line (start -1.95 -3.25) (end -1.95 3.25) (layer F.CrtYd) (width 0.05))
    (fp_line (start -1.95 3.25) (end 4.5 3.25) (layer F.CrtYd) (width 0.05))
    (fp_line (start 4.5 3.25) (end 4.5 -3.25) (layer F.CrtYd) (width 0.05))
    (fp_line (start 4.5 -3.25) (end -1.95 -3.25) (layer F.CrtYd) (width 0.05))
    (fp_circle (center 1.27 0) (end 3.77 0) (layer F.Fab) (width 0.1))
    (fp_circle (center 1.27 0) (end 3.77 0) (layer F.SilkS) (width 0.12))
    (fp_arc (start 1.27 0) (end -1.23 -1.469694) (angle 299.1) (layer F.Fab) (width 0.1))
    (fp_arc (start 1.27 0) (end -1.29 -1.54483) (angle 148.9) (layer F.SilkS) (width 0.12))
    (fp_arc (start 1.27 0) (end -1.29 1.54483) (angle -148.9) (layer F.SilkS) (width 0.12))
    (pad 1 thru_hole rect (at 0 0 180) (size 1.8 1.8) (drill 0.9) (layers *.Cu *.Mask)
      (net 38 "Net-(D1-Pad1)"))
    (pad 2 thru_hole circle (at 2.54 0 180) (size 1.8 1.8) (drill 0.9) (layers *.Cu *.Mask)
      (net 23 +3V3))
    (model ${KISYS3DMOD}/LED_THT.3dshapes/LED_D5.0mm_Clear.wrl
      (at (xyz 0 0 0))
      (scale (xyz 1 1 1))
      (rotate (xyz 0 0 0))
    )
  )

  (module LED_THT:LED_D5.0mm_Clear (layer F.Cu) (tedit 5A6C9BC0) (tstamp 5EC6F6D0)
    (at 81.28 99.06 180)
    (descr "LED, diameter 5.0mm, 2 pins, http://cdn-reichelt.de/documents/datenblatt/A500/LL-504BC2E-009.pdf")
    (tags "LED diameter 5.0mm 2 pins")
    (path /5E982180)
    (fp_text reference D2 (at -3.302 -1.27 180) (layer F.SilkS)
      (effects (font (size 1 1) (thickness 0.15)))
    )
    (fp_text value Blue (at -5.08 2.54 180) (layer F.Fab)
      (effects (font (size 1 1) (thickness 0.15)))
    )
    (fp_arc (start 1.27 0) (end -1.29 1.54483) (angle -148.9) (layer F.SilkS) (width 0.12))
    (fp_arc (start 1.27 0) (end -1.29 -1.54483) (angle 148.9) (layer F.SilkS) (width 0.12))
    (fp_arc (start 1.27 0) (end -1.23 -1.469694) (angle 299.1) (layer F.Fab) (width 0.1))
    (fp_circle (center 1.27 0) (end 3.77 0) (layer F.SilkS) (width 0.12))
    (fp_circle (center 1.27 0) (end 3.77 0) (layer F.Fab) (width 0.1))
    (fp_line (start 4.5 -3.25) (end -1.95 -3.25) (layer F.CrtYd) (width 0.05))
    (fp_line (start 4.5 3.25) (end 4.5 -3.25) (layer F.CrtYd) (width 0.05))
    (fp_line (start -1.95 3.25) (end 4.5 3.25) (layer F.CrtYd) (width 0.05))
    (fp_line (start -1.95 -3.25) (end -1.95 3.25) (layer F.CrtYd) (width 0.05))
    (fp_line (start -1.29 -1.545) (end -1.29 1.545) (layer F.SilkS) (width 0.12))
    (fp_line (start -1.23 -1.469694) (end -1.23 1.469694) (layer F.Fab) (width 0.1))
    (fp_text user %R (at 1.25 0 180) (layer F.Fab)
      (effects (font (size 0.8 0.8) (thickness 0.2)))
    )
    (pad 2 thru_hole circle (at 2.54 0 180) (size 1.8 1.8) (drill 0.9) (layers *.Cu *.Mask)
      (net 23 +3V3))
    (pad 1 thru_hole rect (at 0 0 180) (size 1.8 1.8) (drill 0.9) (layers *.Cu *.Mask)
      (net 39 "Net-(D2-Pad1)"))
    (model ${KISYS3DMOD}/LED_THT.3dshapes/LED_D5.0mm_Clear.wrl
      (at (xyz 0 0 0))
      (scale (xyz 1 1 1))
      (rotate (xyz 0 0 0))
    )
  )

  (module LED_THT:LED_D5.0mm_Clear (layer F.Cu) (tedit 5A6C9BC0) (tstamp 5EC6F6E2)
    (at 68.58 99.06 180)
    (descr "LED, diameter 5.0mm, 2 pins, http://cdn-reichelt.de/documents/datenblatt/A500/LL-504BC2E-009.pdf")
    (tags "LED diameter 5.0mm 2 pins")
    (path /5E982213)
    (fp_text reference D3 (at -3.556 -1.27 180) (layer F.SilkS)
      (effects (font (size 1 1) (thickness 0.15)))
    )
    (fp_text value Green (at -5.08 2.54 180) (layer F.Fab)
      (effects (font (size 1 1) (thickness 0.15)))
    )
    (fp_text user %R (at 1.25 0 180) (layer F.Fab)
      (effects (font (size 0.8 0.8) (thickness 0.2)))
    )
    (fp_line (start -1.23 -1.469694) (end -1.23 1.469694) (layer F.Fab) (width 0.1))
    (fp_line (start -1.29 -1.545) (end -1.29 1.545) (layer F.SilkS) (width 0.12))
    (fp_line (start -1.95 -3.25) (end -1.95 3.25) (layer F.CrtYd) (width 0.05))
    (fp_line (start -1.95 3.25) (end 4.5 3.25) (layer F.CrtYd) (width 0.05))
    (fp_line (start 4.5 3.25) (end 4.5 -3.25) (layer F.CrtYd) (width 0.05))
    (fp_line (start 4.5 -3.25) (end -1.95 -3.25) (layer F.CrtYd) (width 0.05))
    (fp_circle (center 1.27 0) (end 3.77 0) (layer F.Fab) (width 0.1))
    (fp_circle (center 1.27 0) (end 3.77 0) (layer F.SilkS) (width 0.12))
    (fp_arc (start 1.27 0) (end -1.23 -1.469694) (angle 299.1) (layer F.Fab) (width 0.1))
    (fp_arc (start 1.27 0) (end -1.29 -1.54483) (angle 148.9) (layer F.SilkS) (width 0.12))
    (fp_arc (start 1.27 0) (end -1.29 1.54483) (angle -148.9) (layer F.SilkS) (width 0.12))
    (pad 1 thru_hole rect (at 0 0 180) (size 1.8 1.8) (drill 0.9) (layers *.Cu *.Mask)
      (net 40 "Net-(D3-Pad1)"))
    (pad 2 thru_hole circle (at 2.54 0 180) (size 1.8 1.8) (drill 0.9) (layers *.Cu *.Mask)
      (net 23 +3V3))
    (model ${KISYS3DMOD}/LED_THT.3dshapes/LED_D5.0mm_Clear.wrl
      (at (xyz 0 0 0))
      (scale (xyz 1 1 1))
      (rotate (xyz 0 0 0))
    )
  )

  (module Resistor_THT:R_Axial_DIN0207_L6.3mm_D2.5mm_P10.16mm_Horizontal (layer F.Cu) (tedit 5E979491) (tstamp 5EC6F6F9)
    (at 119.38 109.22 180)
    (descr "Resistor, Axial_DIN0207 series, Axial, Horizontal, pin pitch=10.16mm, 0.25W = 1/4W, length*diameter=6.3*2.5mm^2, http://cdn-reichelt.de/documents/datenblatt/B400/1_4W%23YAG.pdf")
    (tags "Resistor Axial_DIN0207 series Axial Horizontal pin pitch 10.16mm 0.25W = 1/4W length 6.3mm diameter 2.5mm")
    (path /5E988A3B)
    (fp_text reference R1 (at 0 -2.37 180) (layer F.SilkS)
      (effects (font (size 1 1) (thickness 0.15)))
    )
    (fp_text value 220 (at 5.08 0 180) (layer F.Fab)
      (effects (font (size 1 1) (thickness 0.15)))
    )
    (fp_line (start 1.93 -1.25) (end 1.93 1.25) (layer F.Fab) (width 0.1))
    (fp_line (start 1.93 1.25) (end 8.23 1.25) (layer F.Fab) (width 0.1))
    (fp_line (start 8.23 1.25) (end 8.23 -1.25) (layer F.Fab) (width 0.1))
    (fp_line (start 8.23 -1.25) (end 1.93 -1.25) (layer F.Fab) (width 0.1))
    (fp_line (start 0 0) (end 1.93 0) (layer F.Fab) (width 0.1))
    (fp_line (start 10.16 0) (end 8.23 0) (layer F.Fab) (width 0.1))
    (fp_line (start 1.81 -1.37) (end 1.81 1.37) (layer F.SilkS) (width 0.12))
    (fp_line (start 1.81 1.37) (end 8.35 1.37) (layer F.SilkS) (width 0.12))
    (fp_line (start 8.35 1.37) (end 8.35 -1.37) (layer F.SilkS) (width 0.12))
    (fp_line (start 8.35 -1.37) (end 1.81 -1.37) (layer F.SilkS) (width 0.12))
    (fp_line (start 1.04 0) (end 1.81 0) (layer F.SilkS) (width 0.12))
    (fp_line (start 9.12 0) (end 8.35 0) (layer F.SilkS) (width 0.12))
    (fp_line (start -1.05 -1.5) (end -1.05 1.5) (layer F.CrtYd) (width 0.05))
    (fp_line (start -1.05 1.5) (end 11.21 1.5) (layer F.CrtYd) (width 0.05))
    (fp_line (start 11.21 1.5) (end 11.21 -1.5) (layer F.CrtYd) (width 0.05))
    (fp_line (start 11.21 -1.5) (end -1.05 -1.5) (layer F.CrtYd) (width 0.05))
    (fp_text user %R (at 5.08 0 180) (layer F.Fab) hide
      (effects (font (size 1 1) (thickness 0.15)))
    )
    (pad 1 thru_hole circle (at 0 0 180) (size 1.6 1.6) (drill 0.8) (layers *.Cu *.Mask)
      (net 35 "Net-(R1-Pad1)"))
    (pad 2 thru_hole oval (at 10.16 0 180) (size 1.6 1.6) (drill 0.8) (layers *.Cu *.Mask)
      (net 38 "Net-(D1-Pad1)"))
    (model ${KISYS3DMOD}/Resistor_THT.3dshapes/R_Axial_DIN0207_L6.3mm_D2.5mm_P10.16mm_Horizontal.wrl
      (at (xyz 0 0 0))
      (scale (xyz 1 1 1))
      (rotate (xyz 0 0 0))
    )
  )

  (module Resistor_THT:R_Axial_DIN0207_L6.3mm_D2.5mm_P10.16mm_Horizontal (layer F.Cu) (tedit 5E97A52D) (tstamp 5EC6F710)
    (at 114.3 114.3 180)
    (descr "Resistor, Axial_DIN0207 series, Axial, Horizontal, pin pitch=10.16mm, 0.25W = 1/4W, length*diameter=6.3*2.5mm^2, http://cdn-reichelt.de/documents/datenblatt/B400/1_4W%23YAG.pdf")
    (tags "Resistor Axial_DIN0207 series Axial Horizontal pin pitch 10.16mm 0.25W = 1/4W length 6.3mm diameter 2.5mm")
    (path /5E9889ED)
    (fp_text reference R2 (at 0 -2.37 180) (layer F.SilkS)
      (effects (font (size 1 1) (thickness 0.15)))
    )
    (fp_text value 220 (at 5.08 0 180) (layer F.Fab)
      (effects (font (size 1 1) (thickness 0.15)))
    )
    (fp_text user %R (at 5.08 0 180) (layer F.Fab) hide
      (effects (font (size 1 1) (thickness 0.15)))
    )
    (fp_line (start 11.21 -1.5) (end -1.05 -1.5) (layer F.CrtYd) (width 0.05))
    (fp_line (start 11.21 1.5) (end 11.21 -1.5) (layer F.CrtYd) (width 0.05))
    (fp_line (start -1.05 1.5) (end 11.21 1.5) (layer F.CrtYd) (width 0.05))
    (fp_line (start -1.05 -1.5) (end -1.05 1.5) (layer F.CrtYd) (width 0.05))
    (fp_line (start 9.12 0) (end 8.35 0) (layer F.SilkS) (width 0.12))
    (fp_line (start 1.04 0) (end 1.81 0) (layer F.SilkS) (width 0.12))
    (fp_line (start 8.35 -1.37) (end 1.81 -1.37) (layer F.SilkS) (width 0.12))
    (fp_line (start 8.35 1.37) (end 8.35 -1.37) (layer F.SilkS) (width 0.12))
    (fp_line (start 1.81 1.37) (end 8.35 1.37) (layer F.SilkS) (width 0.12))
    (fp_line (start 1.81 -1.37) (end 1.81 1.37) (layer F.SilkS) (width 0.12))
    (fp_line (start 10.16 0) (end 8.23 0) (layer F.Fab) (width 0.1))
    (fp_line (start 0 0) (end 1.93 0) (layer F.Fab) (width 0.1))
    (fp_line (start 8.23 -1.25) (end 1.93 -1.25) (layer F.Fab) (width 0.1))
    (fp_line (start 8.23 1.25) (end 8.23 -1.25) (layer F.Fab) (width 0.1))
    (fp_line (start 1.93 1.25) (end 8.23 1.25) (layer F.Fab) (width 0.1))
    (fp_line (start 1.93 -1.25) (end 1.93 1.25) (layer F.Fab) (width 0.1))
    (pad 2 thru_hole oval (at 10.16 0 180) (size 1.6 1.6) (drill 0.8) (layers *.Cu *.Mask)
      (net 39 "Net-(D2-Pad1)"))
    (pad 1 thru_hole circle (at 0 0 180) (size 1.6 1.6) (drill 0.8) (layers *.Cu *.Mask)
      (net 36 "Net-(R2-Pad1)"))
    (model ${KISYS3DMOD}/Resistor_THT.3dshapes/R_Axial_DIN0207_L6.3mm_D2.5mm_P10.16mm_Horizontal.wrl
      (at (xyz 0 0 0))
      (scale (xyz 1 1 1))
      (rotate (xyz 0 0 0))
    )
  )

  (module Resistor_THT:R_Axial_DIN0207_L6.3mm_D2.5mm_P10.16mm_Horizontal (layer F.Cu) (tedit 5E97945A) (tstamp 5EC6F727)
    (at 111.76 119.38 180)
    (descr "Resistor, Axial_DIN0207 series, Axial, Horizontal, pin pitch=10.16mm, 0.25W = 1/4W, length*diameter=6.3*2.5mm^2, http://cdn-reichelt.de/documents/datenblatt/B400/1_4W%23YAG.pdf")
    (tags "Resistor Axial_DIN0207 series Axial Horizontal pin pitch 10.16mm 0.25W = 1/4W length 6.3mm diameter 2.5mm")
    (path /5E988992)
    (fp_text reference R3 (at 0 -2.54 180) (layer F.SilkS)
      (effects (font (size 1 1) (thickness 0.15)))
    )
    (fp_text value 820 (at 5.08 0 180) (layer F.Fab)
      (effects (font (size 1 1) (thickness 0.15)))
    )
    (fp_line (start 1.93 -1.25) (end 1.93 1.25) (layer F.Fab) (width 0.1))
    (fp_line (start 1.93 1.25) (end 8.23 1.25) (layer F.Fab) (width 0.1))
    (fp_line (start 8.23 1.25) (end 8.23 -1.25) (layer F.Fab) (width 0.1))
    (fp_line (start 8.23 -1.25) (end 1.93 -1.25) (layer F.Fab) (width 0.1))
    (fp_line (start 0 0) (end 1.93 0) (layer F.Fab) (width 0.1))
    (fp_line (start 10.16 0) (end 8.23 0) (layer F.Fab) (width 0.1))
    (fp_line (start 1.81 -1.37) (end 1.81 1.37) (layer F.SilkS) (width 0.12))
    (fp_line (start 1.81 1.37) (end 8.35 1.37) (layer F.SilkS) (width 0.12))
    (fp_line (start 8.35 1.37) (end 8.35 -1.37) (layer F.SilkS) (width 0.12))
    (fp_line (start 8.35 -1.37) (end 1.81 -1.37) (layer F.SilkS) (width 0.12))
    (fp_line (start 1.04 0) (end 1.81 0) (layer F.SilkS) (width 0.12))
    (fp_line (start 9.12 0) (end 8.35 0) (layer F.SilkS) (width 0.12))
    (fp_line (start -1.05 -1.5) (end -1.05 1.5) (layer F.CrtYd) (width 0.05))
    (fp_line (start -1.05 1.5) (end 11.21 1.5) (layer F.CrtYd) (width 0.05))
    (fp_line (start 11.21 1.5) (end 11.21 -1.5) (layer F.CrtYd) (width 0.05))
    (fp_line (start 11.21 -1.5) (end -1.05 -1.5) (layer F.CrtYd) (width 0.05))
    (fp_text user %R (at 5.08 0 180) (layer F.Fab) hide
      (effects (font (size 1 1) (thickness 0.15)))
    )
    (pad 1 thru_hole circle (at 0 0 180) (size 1.6 1.6) (drill 0.8) (layers *.Cu *.Mask)
      (net 37 "Net-(R3-Pad1)"))
    (pad 2 thru_hole oval (at 10.16 0 180) (size 1.6 1.6) (drill 0.8) (layers *.Cu *.Mask)
      (net 40 "Net-(D3-Pad1)"))
    (model ${KISYS3DMOD}/Resistor_THT.3dshapes/R_Axial_DIN0207_L6.3mm_D2.5mm_P10.16mm_Horizontal.wrl
      (at (xyz 0 0 0))
      (scale (xyz 1 1 1))
      (rotate (xyz 0 0 0))
    )
  )

  (module Wemos:WEMOS_D1_DataLogger (layer F.Cu) (tedit 5E9845B2) (tstamp 5E98678A)
    (at 37.846 103.632)
    (descr "16-pin module, column spacing 22.86 mm (900 mils), https://wiki.wemos.cc/products:d1:d1_mini, https://c1.staticflickr.com/1/734/31400410271_f278b087db_z.jpg")
    (tags "ESP8266 WiFi microcontroller")
    (path /5E9627B0)
    (fp_text reference U2 (at 22 27) (layer F.SilkS)
      (effects (font (size 1 1) (thickness 0.15)))
    )
    (fp_text value WeMos_D1_Logger (at 11.43 5.715) (layer F.SilkS)
      (effects (font (size 1.2 1.2) (thickness 0.15)))
    )
    (fp_line (start 1.04 26.12) (end 24.36 26.12) (layer F.SilkS) (width 0.12))
    (fp_line (start -1.5 19.22) (end -1.524 0) (layer F.SilkS) (width 0.12))
    (fp_line (start 24.36 26.12) (end 24.384 0.254) (layer F.SilkS) (width 0.12))
    (fp_line (start 22.225 -1.905) (end 0.615 -1.905) (layer F.SilkS) (width 0.12))
    (fp_line (start 1.17 25.99) (end 24.23 25.99) (layer F.Fab) (width 0.1))
    (fp_line (start 24.23 25.99) (end 24.257 0) (layer F.Fab) (width 0.1))
    (fp_line (start 22.25 -2.032) (end 0.65 -2.032) (layer F.Fab) (width 0.1))
    (fp_line (start -1.37 1) (end -1.37 19.09) (layer F.Fab) (width 0.1))
    (fp_text user %R (at 11.43 10) (layer F.Fab) hide
      (effects (font (size 1 1) (thickness 0.15)))
    )
    (fp_line (start -1.716 -2.032) (end 24.384 -2.032) (layer F.CrtYd) (width 0.05))
    (fp_line (start 24.384 -2.032) (end 24.48 26.24) (layer F.CrtYd) (width 0.05))
    (fp_line (start 24.48 26.24) (end -1.62 26.24) (layer F.CrtYd) (width 0.05))
    (fp_line (start -1.62 26.24) (end -1.524 -2.032) (layer F.CrtYd) (width 0.05))
    (fp_poly (pts (xy -2.54 -0.635) (xy -2.54 0.635) (xy -1.905 0)) (layer F.SilkS) (width 0.15))
    (fp_line (start -1.37 19.09) (end 1.17 19.09) (layer F.Fab) (width 0.1))
    (fp_line (start 1.17 19.09) (end 1.17 25.99) (layer F.Fab) (width 0.1))
    (fp_line (start -1.397 -0.13) (end -1.397 5.08) (layer F.Fab) (width 0.1))
    (fp_arc (start 0.635 0) (end 0.635 -2) (angle -90) (layer F.Fab) (width 0.1))
    (fp_arc (start 22.23 -0.032) (end 24.23 -0.012) (angle -90) (layer F.Fab) (width 0.1))
    (fp_line (start -1.5 19.22) (end 1.04 19.22) (layer F.SilkS) (width 0.12))
    (fp_line (start 1.04 19.22) (end 1.04 26.12) (layer F.SilkS) (width 0.12))
    (fp_arc (start 0.63 0.225) (end 0.63 -1.905) (angle -90) (layer F.SilkS) (width 0.12))
    (fp_arc (start 22.23 0.254) (end 24.36 0.254) (angle -90) (layer F.SilkS) (width 0.12))
    (fp_line (start 5.08 28.575) (end 5.08 12.065) (layer F.SilkS) (width 0.15))
    (fp_line (start 5.08 12.065) (end 15.875 12.065) (layer F.SilkS) (width 0.15))
    (fp_line (start 15.875 12.065) (end 15.875 16.51) (layer F.SilkS) (width 0.15))
    (fp_line (start 15.875 16.51) (end 17.78 17.78) (layer F.SilkS) (width 0.15))
    (fp_line (start 17.78 17.78) (end 17.78 28.575) (layer F.SilkS) (width 0.15))
    (fp_line (start 17.78 28.575) (end 5.08 28.575) (layer F.SilkS) (width 0.15))
    (fp_line (start 6.35 28.575) (end 6.35 17.78) (layer F.SilkS) (width 0.15))
    (fp_line (start 6.35 17.78) (end 16.51 17.78) (layer F.SilkS) (width 0.15))
    (fp_line (start 16.51 17.78) (end 16.51 28.575) (layer F.SilkS) (width 0.15))
    (fp_line (start 10.16 -0.635) (end 19.05 -0.635) (layer F.SilkS) (width 0.15))
    (fp_line (start 19.05 -0.635) (end 19.05 3.175) (layer F.SilkS) (width 0.15))
    (fp_line (start 19.05 3.175) (end 10.16 3.175) (layer F.SilkS) (width 0.15))
    (fp_line (start 10.16 3.175) (end 10.16 -0.635) (layer F.SilkS) (width 0.15))
    (fp_line (start 10.16 0) (end 7.62 0) (layer F.SilkS) (width 0.15))
    (fp_line (start 10.16 2.54) (end 7.62 2.54) (layer F.SilkS) (width 0.15))
    (fp_text user "RTC + MicroSD" (at 10.795 7.62) (layer F.SilkS)
      (effects (font (size 1.2 1.2) (thickness 0.15)))
    )
    (pad 2 thru_hole oval (at 0 2.54) (size 2.54 1.27) (drill 0.8) (layers *.Cu *.Mask)
      (net 28 "Net-(U2-Pad2)"))
    (pad 1 thru_hole rect (at 0 0) (size 2.54 1.27) (drill 0.8) (layers *.Cu *.Mask)
      (net 29 "Net-(U2-Pad1)"))
    (pad 3 thru_hole oval (at 0 5.08) (size 2.54 1.27) (drill 0.8) (layers *.Cu *.Mask)
      (net 30 "Net-(U2-Pad3)"))
    (pad 4 thru_hole oval (at 0 7.62) (size 2.54 1.27) (drill 0.8) (layers *.Cu *.Mask)
      (net 6 "Net-(U1-Pad27)"))
    (pad 5 thru_hole oval (at 0 10.16) (size 2.54 1.27) (drill 0.8) (layers *.Cu *.Mask)
      (net 8 "Net-(U1-Pad25)"))
    (pad 6 thru_hole oval (at 0 12.7) (size 2.54 1.27) (drill 0.8) (layers *.Cu *.Mask)
      (net 7 "Net-(U1-Pad26)"))
    (pad 7 thru_hole oval (at 0 15.24) (size 2.54 1.27) (drill 0.8) (layers *.Cu *.Mask)
      (net 5 "Net-(U1-Pad28)"))
    (pad 8 thru_hole oval (at 0 17.78) (size 2.54 1.27) (drill 0.8) (layers *.Cu *.Mask)
      (net 23 +3V3))
    (pad 9 thru_hole oval (at 22.86 17.78) (size 2.54 1.27) (drill 0.8) (layers *.Cu *.Mask)
      (net 9 +5V))
    (pad 10 thru_hole oval (at 22.86 15.24) (size 2.54 1.27) (drill 0.8) (layers *.Cu *.Mask)
      (net 2 GNDD))
    (pad 11 thru_hole oval (at 22.86 12.7) (size 2.54 1.27) (drill 0.8) (layers *.Cu *.Mask)
      (net 31 "Net-(U2-Pad11)"))
    (pad 12 thru_hole oval (at 22.86 10.16) (size 2.54 1.27) (drill 0.8) (layers *.Cu *.Mask)
      (net 32 "Net-(U2-Pad12)"))
    (pad 13 thru_hole oval (at 22.86 7.62) (size 2.54 1.27) (drill 0.8) (layers *.Cu *.Mask)
      (net 24 "Net-(U1-Pad22)"))
    (pad 14 thru_hole oval (at 22.86 5.08) (size 2.54 1.27) (drill 0.8) (layers *.Cu *.Mask)
      (net 25 "Net-(U1-Pad21)"))
    (pad 15 thru_hole oval (at 22.86 2.54) (size 2.54 1.27) (drill 0.8) (layers *.Cu *.Mask)
      (net 33 "Net-(U2-Pad15)"))
    (pad 16 thru_hole oval (at 22.86 0) (size 2.54 1.27) (drill 0.8) (layers *.Cu *.Mask)
      (net 34 "Net-(U2-Pad16)"))
    (model ${KISYS3DMOD}/Module.3dshapes/WEMOS_D1_mini_light.wrl
      (at (xyz 0 0 0))
      (scale (xyz 1 1 1))
      (rotate (xyz 0 0 0))
    )
    (model ${KISYS3DMOD}/Connector_PinHeader_2.54mm.3dshapes/PinHeader_1x08_P2.54mm_Vertical.wrl
      (offset (xyz 0 0 9.5))
      (scale (xyz 1 1 1))
      (rotate (xyz 0 -180 0))
    )
    (model ${KISYS3DMOD}/Connector_PinHeader_2.54mm.3dshapes/PinHeader_1x08_P2.54mm_Vertical.wrl
      (offset (xyz 22.86 0 9.5))
      (scale (xyz 1 1 1))
      (rotate (xyz 0 -180 0))
    )
    (model ${KISYS3DMOD}/Connector_PinSocket_2.54mm.3dshapes/PinSocket_1x08_P2.54mm_Vertical.wrl
      (at (xyz 0 0 0))
      (scale (xyz 1 1 1))
      (rotate (xyz 0 0 0))
    )
    (model ${KISYS3DMOD}/Connector_PinSocket_2.54mm.3dshapes/PinSocket_1x08_P2.54mm_Vertical.wrl
      (offset (xyz 22.86 0 0))
      (scale (xyz 1 1 1))
      (rotate (xyz 0 0 0))
    )
  )

  (module Wemos:LoLin_32_Board (layer F.Cu) (tedit 5E985A37) (tstamp 5E988531)
    (at 102.87 115.57 90)
    (path /5E96162B)
    (fp_text reference U1 (at -14.986 14.732 180) (layer F.SilkS)
      (effects (font (size 1 1) (thickness 0.15)))
    )
    (fp_text value Wemos_LoLin32 (at 0 -31.75 90) (layer F.Fab) hide
      (effects (font (size 1 1) (thickness 0.15)))
    )
    (fp_line (start 0.635 26.67) (end 0.635 24.13) (layer F.SilkS) (width 0.15))
    (fp_line (start 0.635 24.13) (end 5.715 24.13) (layer F.SilkS) (width 0.15))
    (fp_line (start 5.715 24.13) (end 5.715 26.67) (layer F.SilkS) (width 0.15))
    (fp_line (start -12.7 16.51) (end -8.255 16.51) (layer F.SilkS) (width 0.15))
    (fp_line (start -8.255 16.51) (end -8.255 17.145) (layer F.SilkS) (width 0.15))
    (fp_line (start -8.255 17.145) (end -8.89 17.145) (layer F.SilkS) (width 0.15))
    (fp_line (start -8.89 17.145) (end -8.89 24.765) (layer F.SilkS) (width 0.15))
    (fp_line (start -8.89 24.765) (end -8.255 24.765) (layer F.SilkS) (width 0.15))
    (fp_line (start -8.255 24.765) (end -8.255 25.4) (layer F.SilkS) (width 0.15))
    (fp_line (start -8.255 25.4) (end -12.7 25.4) (layer F.SilkS) (width 0.15))
    (fp_line (start -8.89 -24.13) (end -8.89 -6.985) (layer F.SilkS) (width 0.15))
    (fp_line (start -8.89 -6.985) (end 8.89 -6.985) (layer F.SilkS) (width 0.15))
    (fp_line (start 8.89 -6.985) (end 8.89 -24.13) (layer F.SilkS) (width 0.15))
    (fp_line (start 8.89 -24.13) (end -8.89 -24.13) (layer F.SilkS) (width 0.15))
    (fp_line (start -9.525 -28.575) (end -9.525 -6.35) (layer F.SilkS) (width 0.15))
    (fp_line (start -9.525 -6.35) (end 9.525 -6.35) (layer F.SilkS) (width 0.15))
    (fp_line (start 9.525 -6.35) (end 9.525 -28.575) (layer F.SilkS) (width 0.15))
    (fp_line (start 9.525 -28.575) (end -9.525 -28.575) (layer F.SilkS) (width 0.15))
    (fp_line (start -11.43 -29.21) (end 11.43 -29.21) (layer F.SilkS) (width 0.15))
    (fp_line (start -11.43 26.67) (end 11.43 26.67) (layer F.SilkS) (width 0.15))
    (fp_arc (start 11.43 25.4) (end 12.7 25.4) (angle 90) (layer F.SilkS) (width 0.15))
    (fp_arc (start -11.43 25.4) (end -11.43 26.67) (angle 90) (layer F.SilkS) (width 0.15))
    (fp_arc (start 11.43 -27.94) (end 11.43 -29.21) (angle 90) (layer F.SilkS) (width 0.15))
    (fp_arc (start -11.43 -27.94) (end -12.7 -27.94) (angle 90) (layer F.SilkS) (width 0.15))
    (fp_line (start 12.7 -27.94) (end 12.7 25.4) (layer F.SilkS) (width 0.15))
    (fp_line (start -12.7 -27.94) (end -12.7 25.4) (layer F.SilkS) (width 0.15))
    (fp_text user Wemos (at 0 -21.59 90) (layer F.SilkS)
      (effects (font (size 3 3) (thickness 0.15)))
    )
    (fp_text user LOLIN32 (at 0 -18.415 90) (layer F.SilkS)
      (effects (font (size 1.5 1.5) (thickness 0.15)))
    )
    (fp_line (start -11.43 18.415) (end -10.16 18.415) (layer F.SilkS) (width 0.15))
    (fp_line (start -10.795 17.78) (end -10.795 19.05) (layer F.SilkS) (width 0.15))
    (fp_line (start -10.795 22.86) (end -10.795 24.13) (layer F.SilkS) (width 0.15))
    (fp_circle (center 2.54 -1.905) (end 2.54 -2.54) (layer F.SilkS) (width 0.15))
    (fp_line (start 1.27 -3.175) (end 3.81 -3.175) (layer F.SilkS) (width 0.15))
    (fp_line (start 3.81 -3.175) (end 3.81 -0.635) (layer F.SilkS) (width 0.15))
    (fp_line (start 3.81 -0.635) (end 1.27 -0.635) (layer F.SilkS) (width 0.15))
    (fp_line (start 1.27 -0.635) (end 1.27 -2.54) (layer F.SilkS) (width 0.15))
    (fp_line (start 1.27 -2.54) (end 1.27 -3.175) (layer F.SilkS) (width 0.15))
    (fp_text user RESET (at 6.604 -1.778 90) (layer F.SilkS)
      (effects (font (size 1 1) (thickness 0.15)))
    )
    (fp_line (start -9.525 -25.4) (end 9.525 -25.4) (layer F.SilkS) (width 0.15))
    (fp_line (start -9.525 -28.575) (end -6.35 -25.4) (layer F.SilkS) (width 0.15))
    (fp_line (start -6.35 -25.4) (end -4.445 -25.4) (layer F.SilkS) (width 0.15))
    (fp_line (start -4.445 -25.4) (end -7.62 -28.575) (layer F.SilkS) (width 0.15))
    (fp_line (start -7.62 -28.575) (end -5.715 -28.575) (layer F.SilkS) (width 0.15))
    (fp_line (start -5.715 -28.575) (end -2.54 -25.4) (layer F.SilkS) (width 0.15))
    (fp_line (start -2.54 -25.4) (end -0.635 -25.4) (layer F.SilkS) (width 0.15))
    (fp_line (start -0.635 -25.4) (end -3.81 -28.575) (layer F.SilkS) (width 0.15))
    (fp_line (start -3.81 -28.575) (end -1.905 -28.575) (layer F.SilkS) (width 0.15))
    (fp_line (start -1.905 -28.575) (end 1.27 -25.4) (layer F.SilkS) (width 0.15))
    (fp_line (start 1.27 -25.4) (end 3.175 -25.4) (layer F.SilkS) (width 0.15))
    (fp_line (start 3.175 -25.4) (end 0 -28.575) (layer F.SilkS) (width 0.15))
    (fp_line (start 0 -28.575) (end 1.905 -28.575) (layer F.SilkS) (width 0.15))
    (fp_line (start 1.905 -28.575) (end 5.08 -25.4) (layer F.SilkS) (width 0.15))
    (fp_line (start 5.08 -25.4) (end 6.35 -25.4) (layer F.SilkS) (width 0.15))
    (fp_line (start 6.35 -25.4) (end 6.985 -25.4) (layer F.SilkS) (width 0.15))
    (fp_line (start 6.985 -25.4) (end 3.81 -28.575) (layer F.SilkS) (width 0.15))
    (fp_line (start 3.81 -28.575) (end 6.35 -28.575) (layer F.SilkS) (width 0.15))
    (fp_line (start 6.35 -28.575) (end 5.715 -28.575) (layer F.SilkS) (width 0.15))
    (fp_line (start 5.715 -28.575) (end 8.89 -25.4) (layer F.SilkS) (width 0.15))
    (fp_line (start 8.89 -25.4) (end 9.525 -25.4) (layer F.SilkS) (width 0.15))
    (fp_line (start 9.525 -25.4) (end 9.525 -26.035) (layer F.SilkS) (width 0.15))
    (fp_line (start 9.525 -26.035) (end 9.525 -26.67) (layer F.SilkS) (width 0.15))
    (fp_line (start 9.525 -26.67) (end 7.62 -28.575) (layer F.SilkS) (width 0.15))
    (fp_line (start -9.525 -26.67) (end -8.255 -25.4) (layer F.SilkS) (width 0.15))
    (pad 36 thru_hole oval (at 11.43 24.13 90) (size 2.54 1.27) (drill 0.8) (layers *.Cu *.Mask F.SilkS)
      (net 35 "Net-(R1-Pad1)"))
    (pad 35 thru_hole oval (at 11.43 21.59 90) (size 2.54 1.27) (drill 0.8) (layers *.Cu *.Mask F.SilkS)
      (net 1 "Net-(U1-Pad35)"))
    (pad 34 thru_hole oval (at 11.43 19.05 90) (size 2.54 1.27) (drill 0.8) (layers *.Cu *.Mask F.SilkS)
      (net 2 GNDD))
    (pad 33 thru_hole oval (at 11.43 16.51 90) (size 2.54 1.27) (drill 0.8) (layers *.Cu *.Mask F.SilkS)
      (net 3 "Net-(U1-Pad33)"))
    (pad 32 thru_hole oval (at 11.43 13.97 90) (size 2.54 1.27) (drill 0.8) (layers *.Cu *.Mask F.SilkS)
      (net 4 "Net-(U1-Pad32)"))
    (pad 31 thru_hole oval (at 11.43 11.43 90) (size 2.54 1.27) (drill 0.8) (layers *.Cu *.Mask F.SilkS)
      (net 36 "Net-(R2-Pad1)"))
    (pad 30 thru_hole oval (at 11.43 8.89 90) (size 2.54 1.27) (drill 0.8) (layers *.Cu *.Mask F.SilkS)
      (net 37 "Net-(R3-Pad1)"))
    (pad 29 thru_hole oval (at 11.43 6.35 90) (size 2.54 1.27) (drill 0.8) (layers *.Cu *.Mask F.SilkS)
      (net 23 +3V3))
    (pad 28 thru_hole oval (at 11.43 3.81 90) (size 2.54 1.27) (drill 0.8) (layers *.Cu *.Mask F.SilkS)
      (net 5 "Net-(U1-Pad28)"))
    (pad 27 thru_hole oval (at 11.43 1.27 90) (size 2.54 1.27) (drill 0.8) (layers *.Cu *.Mask F.SilkS)
      (net 6 "Net-(U1-Pad27)"))
    (pad 26 thru_hole oval (at 11.43 -1.27 90) (size 2.54 1.27) (drill 0.8) (layers *.Cu *.Mask F.SilkS)
      (net 7 "Net-(U1-Pad26)"))
    (pad 25 thru_hole oval (at 11.43 -3.81 90) (size 2.54 1.27) (drill 0.8) (layers *.Cu *.Mask F.SilkS)
      (net 8 "Net-(U1-Pad25)"))
    (pad 16 thru_hole oval (at -11.43 13.97 90) (size 2.54 1.27) (drill 0.8) (layers *.Cu *.Mask F.SilkS)
      (net 2 GNDD))
    (pad 15 thru_hole oval (at -11.43 11.43 90) (size 2.54 1.27) (drill 0.8) (layers *.Cu *.Mask F.SilkS)
      (net 9 +5V))
    (pad 14 thru_hole oval (at -11.43 8.89 90) (size 2.54 1.27) (drill 0.8) (layers *.Cu *.Mask F.SilkS)
      (net 10 "Net-(U1-Pad14)"))
    (pad 13 thru_hole oval (at -11.43 6.35 90) (size 2.54 1.27) (drill 0.8) (layers *.Cu *.Mask F.SilkS)
      (net 11 "Net-(U1-Pad13)"))
    (pad 12 thru_hole oval (at -11.43 3.81 90) (size 2.54 1.27) (drill 0.8) (layers *.Cu *.Mask F.SilkS)
      (net 12 "Net-(U1-Pad12)"))
    (pad 11 thru_hole oval (at -11.43 1.27 90) (size 2.54 1.27) (drill 0.8) (layers *.Cu *.Mask F.SilkS)
      (net 13 "Net-(U1-Pad11)"))
    (pad 10 thru_hole oval (at -11.43 -1.27 90) (size 2.54 1.27) (drill 0.8) (layers *.Cu *.Mask F.SilkS)
      (net 14 "Net-(U1-Pad10)"))
    (pad 9 thru_hole oval (at -11.43 -3.81 90) (size 2.54 1.27) (drill 0.8) (layers *.Cu *.Mask F.SilkS)
      (net 15 "Net-(U1-Pad9)"))
    (pad 8 thru_hole oval (at -11.43 -6.35 90) (size 2.54 1.27) (drill 0.8) (layers *.Cu *.Mask F.SilkS)
      (net 16 "Net-(U1-Pad8)"))
    (pad 7 thru_hole oval (at -11.43 -8.89 90) (size 2.54 1.27) (drill 0.8) (layers *.Cu *.Mask F.SilkS)
      (net 17 "Net-(U1-Pad7)"))
    (pad 6 thru_hole oval (at -11.43 -11.43 90) (size 2.54 1.27) (drill 0.8) (layers *.Cu *.Mask F.SilkS)
      (net 18 "Net-(U1-Pad6)"))
    (pad 5 thru_hole oval (at -11.43 -13.97 90) (size 2.54 1.27) (drill 0.8) (layers *.Cu *.Mask F.SilkS)
      (net 19 "Net-(U1-Pad5)"))
    (pad 4 thru_hole oval (at -11.43 -16.51 90) (size 2.54 1.27) (drill 0.8) (layers *.Cu *.Mask F.SilkS)
      (net 20 "Net-(U1-Pad4)"))
    (pad 3 thru_hole oval (at -11.43 -19.05 90) (size 2.54 1.27) (drill 0.8) (layers *.Cu *.Mask F.SilkS)
      (net 21 "Net-(U1-Pad3)"))
    (pad 2 thru_hole oval (at -11.43 -21.59 90) (size 2.54 1.27) (drill 0.8) (layers *.Cu *.Mask F.SilkS)
      (net 22 "Net-(U1-Pad2)"))
    (pad 1 thru_hole oval (at -11.43 -24.13 90) (size 2.54 1.27) (drill 0.8) (layers *.Cu *.Mask F.SilkS)
      (net 23 +3V3))
    (pad 24 thru_hole oval (at 11.43 -6.35 90) (size 2.54 1.27) (drill 0.8) (layers *.Cu *.Mask F.SilkS)
      (net 2 GNDD))
    (pad 23 thru_hole oval (at 11.43 -8.89 90) (size 2.54 1.27) (drill 0.8) (layers *.Cu *.Mask F.SilkS)
      (net 2 GNDD))
    (pad 22 thru_hole oval (at 11.43 -11.43 90) (size 2.54 1.27) (drill 0.8) (layers *.Cu *.Mask F.SilkS)
      (net 24 "Net-(U1-Pad22)"))
    (pad 21 thru_hole oval (at 11.43 -13.97 90) (size 2.54 1.27) (drill 0.8) (layers *.Cu *.Mask F.SilkS)
      (net 25 "Net-(U1-Pad21)"))
    (pad 20 thru_hole oval (at 11.43 -16.51 90) (size 2.54 1.27) (drill 0.8) (layers *.Cu *.Mask F.SilkS)
      (net 23 +3V3))
    (pad 19 thru_hole oval (at 11.43 -19.05 90) (size 2.54 1.27) (drill 0.8) (layers *.Cu *.Mask F.SilkS)
      (net 26 "Net-(U1-Pad19)"))
    (pad 18 thru_hole oval (at 11.43 -21.59 90) (size 2.54 1.27) (drill 0.8) (layers *.Cu *.Mask F.SilkS)
      (net 27 "Net-(U1-Pad18)"))
    (pad 17 thru_hole oval (at 11.43 -24.13 90) (size 2.54 1.27) (drill 0.8) (layers *.Cu *.Mask F.SilkS)
      (net 2 GNDD))
    (model ${KISYS3DMOD}/Connector_PinHeader_2.54mm.3dshapes/PinHeader_1x16_P2.54mm_Vertical.wrl
      (offset (xyz -11.4 24 9.5))
      (scale (xyz 1 1 1))
      (rotate (xyz 0 180 0))
    )
    (model ${KISYS3DMOD}/Connector_PinHeader_2.54mm.3dshapes/PinHeader_1x20_P2.54mm_Vertical.wrl
      (offset (xyz 11.4 24.1 9.5))
      (scale (xyz 1 1 1))
      (rotate (xyz 0 180 0))
    )
    (model ${KISYS3DMOD}/Connector_PinSocket_2.54mm.3dshapes/PinSocket_1x16_P2.54mm_Vertical.wrl
      (offset (xyz -11.4 24.1 0))
      (scale (xyz 1 1 1))
      (rotate (xyz 0 0 0))
    )
    (model ${KISYS3DMOD}/Connector_PinSocket_2.54mm.3dshapes/PinSocket_1x20_P2.54mm_Vertical.wrl
      (offset (xyz 11.4 24.1 0))
      (scale (xyz 1 1 1))
      (rotate (xyz 0 0 0))
    )
  )

  (module Capacitor_THT:C_Rect_L7.2mm_W2.5mm_P5.00mm_FKS2_FKP2_MKS2_MKP2 (layer F.Cu) (tedit 5E9C6DC4) (tstamp 5E9CC318)
    (at 87.63 119.38 90)
    (descr "C, Rect series, Radial, pin pitch=5.00mm, , length*width=7.2*2.5mm^2, Capacitor, http://www.wima.com/EN/WIMA_FKS_2.pdf")
    (tags "C Rect series Radial pin pitch 5.00mm  length 7.2mm width 2.5mm Capacitor")
    (path /5E98ECC9)
    (fp_text reference C2 (at -1.27 3.81 180) (layer F.SilkS)
      (effects (font (size 1 1) (thickness 0.15)))
    )
    (fp_text value "MKS 100n" (at -2.54 2.54 180) (layer F.Fab)
      (effects (font (size 1 1) (thickness 0.15)))
    )
    (fp_line (start -1.1 -1.25) (end -1.1 1.25) (layer F.Fab) (width 0.1))
    (fp_line (start -1.1 1.25) (end 6.1 1.25) (layer F.Fab) (width 0.1))
    (fp_line (start 6.1 1.25) (end 6.1 -1.25) (layer F.Fab) (width 0.1))
    (fp_line (start 6.1 -1.25) (end -1.1 -1.25) (layer F.Fab) (width 0.1))
    (fp_line (start -1.22 -1.37) (end 6.22 -1.37) (layer F.SilkS) (width 0.12))
    (fp_line (start -1.22 1.37) (end 6.22 1.37) (layer F.SilkS) (width 0.12))
    (fp_line (start -1.22 -1.37) (end -1.22 1.37) (layer F.SilkS) (width 0.12))
    (fp_line (start 6.22 -1.37) (end 6.22 1.37) (layer F.SilkS) (width 0.12))
    (fp_line (start -1.35 -1.5) (end -1.35 1.5) (layer F.CrtYd) (width 0.05))
    (fp_line (start -1.35 1.5) (end 6.35 1.5) (layer F.CrtYd) (width 0.05))
    (fp_line (start 6.35 1.5) (end 6.35 -1.5) (layer F.CrtYd) (width 0.05))
    (fp_line (start 6.35 -1.5) (end -1.35 -1.5) (layer F.CrtYd) (width 0.05))
    (fp_text user %R (at 2.5 0 90) (layer F.Fab) hide
      (effects (font (size 1 1) (thickness 0.15)))
    )
    (pad 1 thru_hole circle (at 0 0 90) (size 1.6 1.6) (drill 0.8) (layers *.Cu *.Mask)
      (net 23 +3V3))
    (pad 2 thru_hole circle (at 5 0 90) (size 1.6 1.6) (drill 0.8) (layers *.Cu *.Mask)
      (net 2 GNDD))
    (model ${KISYS3DMOD}/Capacitor_THT.3dshapes/C_Rect_L7.2mm_W2.5mm_P5.00mm_FKS2_FKP2_MKS2_MKP2.wrl
      (at (xyz 0 0 0))
      (scale (xyz 1 1 1))
      (rotate (xyz 0 0 0))
    )
  )

  (gr_text blue (at 98.044 98.552) (layer F.SilkS) (tstamp 5E991FFF)
    (effects (font (size 1.2 1.2) (thickness 0.15)))
  )
  (gr_text blue (at 85.344 98.552) (layer F.SilkS)
    (effects (font (size 1.2 1.2) (thickness 0.15)))
  )
  (gr_text green (at 73.66 98.298) (layer F.SilkS)
    (effects (font (size 1.2 1.2) (thickness 0.15)))
  )
  (gr_text HardyP_20200416 (at 99.568 134.62) (layer F.SilkS)
    (effects (font (size 1.5 1.5) (thickness 0.15)))
  )
  (gr_text PflanzenServer_LOLIN32_V4 (at 67.945 134.62) (layer F.SilkS)
    (effects (font (size 1.5 1.5) (thickness 0.15)))
  )
  (gr_line (start 35.56 100.33) (end 35.56 130.81) (layer Edge.Cuts) (width 0.2))
  (gr_line (start 43.18 100.33) (end 35.56 100.33) (layer Edge.Cuts) (width 0.2))
  (gr_line (start 43.18 93.98) (end 43.18 100.33) (layer Edge.Cuts) (width 0.2))
  (gr_line (start 121.92 93.98) (end 43.18 93.98) (layer Edge.Cuts) (width 0.2))
  (gr_line (start 121.92 100.33) (end 121.92 93.98) (layer Edge.Cuts) (width 0.2))
  (gr_line (start 129.54 100.33) (end 121.92 100.33) (layer Edge.Cuts) (width 0.2))
  (gr_line (start 129.54 130.81) (end 129.54 100.33) (layer Edge.Cuts) (width 0.2))
  (gr_line (start 121.92 130.81) (end 129.54 130.81) (layer Edge.Cuts) (width 0.2))
  (gr_line (start 121.92 137.16) (end 121.92 130.81) (layer Edge.Cuts) (width 0.2))
  (gr_line (start 43.18 137.16) (end 121.92 137.16) (layer Edge.Cuts) (width 0.2))
  (gr_line (start 43.18 130.81) (end 43.18 137.16) (layer Edge.Cuts) (width 0.2))
  (gr_line (start 35.56 130.81) (end 43.18 130.81) (layer Edge.Cuts) (width 0.2))

  (via (at 114.3 134.62) (size 5) (drill 4) (layers F.Cu B.Cu) (net 0))
  (via (at 114.3 96.52) (size 5) (drill 4) (layers F.Cu B.Cu) (net 0))
  (via (at 48.26 134.62) (size 5) (drill 4) (layers F.Cu B.Cu) (net 0))
  (via (at 48.26 96.52) (size 5) (drill 4) (layers F.Cu B.Cu) (net 0))
  (segment (start 121.92 104.14) (end 121.92 116.84) (width 1) (layer F.Cu) (net 2))
  (segment (start 121.92 116.84) (end 116.84 121.92) (width 1) (layer F.Cu) (net 2))
  (segment (start 99.06 121.92) (end 96.52 119.38) (width 1) (layer F.Cu) (net 2))
  (segment (start 96.52 104.14) (end 93.98 104.14) (width 1) (layer F.Cu) (net 2))
  (segment (start 96.48 114.34) (end 96.52 114.3) (width 1) (layer F.Cu) (net 2))
  (segment (start 96.52 113.03) (end 96.52 113.07) (width 1) (layer F.Cu) (net 2))
  (segment (start 95.25 114.34) (end 96.48 114.34) (width 1) (layer F.Cu) (net 2))
  (segment (start 92.71 114.34) (end 95.25 114.34) (width 1) (layer F.Cu) (net 2))
  (segment (start 96.52 113.07) (end 95.25 114.34) (width 1) (layer F.Cu) (net 2))
  (segment (start 96.52 113.03) (end 96.52 104.14) (width 1) (layer F.Cu) (net 2))
  (segment (start 96.52 114.3) (end 96.52 113.03) (width 1) (layer F.Cu) (net 2))
  (segment (start 95.29 114.34) (end 96.52 115.57) (width 1) (layer F.Cu) (net 2))
  (segment (start 95.25 114.34) (end 95.29 114.34) (width 1) (layer F.Cu) (net 2))
  (segment (start 96.52 119.38) (end 96.52 115.57) (width 1) (layer F.Cu) (net 2))
  (segment (start 96.52 115.57) (end 96.52 114.3) (width 1) (layer F.Cu) (net 2))
  (segment (start 116.205 121.92) (end 116.84 122.555) (width 1) (layer F.Cu) (net 2))
  (segment (start 115.57 121.92) (end 116.205 121.92) (width 1) (layer F.Cu) (net 2))
  (segment (start 116.84 121.92) (end 116.84 122.555) (width 1) (layer F.Cu) (net 2))
  (segment (start 116.84 121.92) (end 115.57 121.92) (width 1) (layer F.Cu) (net 2))
  (segment (start 116.84 123.825) (end 116.84 127) (width 1) (layer F.Cu) (net 2))
  (segment (start 116.84 122.555) (end 116.84 123.825) (width 1) (layer F.Cu) (net 2))
  (segment (start 114.935 121.92) (end 99.06 121.92) (width 1) (layer F.Cu) (net 2))
  (segment (start 114.935 121.92) (end 116.84 123.825) (width 1) (layer F.Cu) (net 2))
  (segment (start 115.57 121.92) (end 114.935 121.92) (width 1) (layer F.Cu) (net 2))
  (segment (start 60.706 118.872) (end 83.178 118.872) (width 1) (layer F.Cu) (net 2))
  (segment (start 78.74 105.53) (end 78.74 104.14) (width 1) (layer F.Cu) (net 2))
  (segment (start 83.178 118.832) (end 87.63 114.38) (width 1) (layer F.Cu) (net 2))
  (segment (start 83.178 118.872) (end 83.178 118.832) (width 1) (layer F.Cu) (net 2))
  (segment (start 92.67 114.38) (end 92.71 114.34) (width 1) (layer F.Cu) (net 2))
  (segment (start 87.63 114.38) (end 92.67 114.38) (width 1) (layer F.Cu) (net 2))
  (segment (start 78.78 105.53) (end 78.74 105.53) (width 1) (layer F.Cu) (net 2))
  (segment (start 87.63 114.38) (end 78.78 105.53) (width 1) (layer F.Cu) (net 2))
  (segment (start 106.68 104.14) (end 106.68 104.775) (width 0.5) (layer B.Cu) (net 5))
  (segment (start 106.68 104.14) (end 106.68 98.425) (width 0.5) (layer B.Cu) (net 5))
  (segment (start 106.68 98.425) (end 104.14 95.885) (width 0.5) (layer B.Cu) (net 5))
  (segment (start 104.14 95.885) (end 56.515 95.885) (width 0.5) (layer B.Cu) (net 5))
  (segment (start 56.515 95.885) (end 51.435 100.965) (width 0.5) (layer B.Cu) (net 5))
  (segment (start 51.435 100.965) (end 51.435 100.965) (width 0.5) (layer B.Cu) (net 5) (tstamp 5E98540D))
  (via (at 51.435 100.965) (size 1.4) (drill 0.8) (layers F.Cu B.Cu) (net 5))
  (segment (start 51.435 100.965) (end 51.435 111.76) (width 0.5) (layer F.Cu) (net 5))
  (segment (start 44.45 118.745) (end 38.1 118.745) (width 0.5) (layer F.Cu) (net 5))
  (segment (start 51.435 111.76) (end 44.45 118.745) (width 0.5) (layer F.Cu) (net 5))
  (segment (start 57.785 97.155) (end 43.815 111.125) (width 0.5) (layer B.Cu) (net 6))
  (segment (start 101.6 97.155) (end 57.785 97.155) (width 0.5) (layer B.Cu) (net 6))
  (segment (start 104.14 104.14) (end 104.14 99.695) (width 0.5) (layer B.Cu) (net 6))
  (segment (start 43.815 111.125) (end 38.1 111.125) (width 0.5) (layer B.Cu) (net 6))
  (segment (start 104.14 99.695) (end 101.6 97.155) (width 0.5) (layer B.Cu) (net 6))
  (segment (start 46.355 116.205) (end 38.1 116.205) (width 0.5) (layer B.Cu) (net 7))
  (segment (start 48.21702 116.205) (end 46.355 116.205) (width 0.5) (layer B.Cu) (net 7))
  (segment (start 101.6 104.775) (end 95.25 111.125) (width 0.5) (layer B.Cu) (net 7))
  (segment (start 64.09299 114.97701) (end 49.44501 114.97701) (width 0.5) (layer B.Cu) (net 7))
  (segment (start 101.6 104.14) (end 101.6 104.775) (width 0.5) (layer B.Cu) (net 7))
  (segment (start 49.44501 114.97701) (end 48.21702 116.205) (width 0.5) (layer B.Cu) (net 7))
  (segment (start 95.25 111.125) (end 67.945 111.125) (width 0.5) (layer B.Cu) (net 7))
  (segment (start 67.945 111.125) (end 64.09299 114.97701) (width 0.5) (layer B.Cu) (net 7))
  (segment (start 45.085 113.665) (end 38.1 113.665) (width 0.5) (layer B.Cu) (net 8))
  (segment (start 99.06 104.775) (end 93.98 109.855) (width 0.5) (layer B.Cu) (net 8))
  (segment (start 99.06 104.14) (end 99.06 104.775) (width 0.5) (layer B.Cu) (net 8))
  (segment (start 93.98 109.855) (end 66.675 109.855) (width 0.5) (layer B.Cu) (net 8))
  (segment (start 66.675 109.855) (end 64.008 112.522) (width 0.5) (layer B.Cu) (net 8))
  (segment (start 64.008 112.522) (end 46.228 112.522) (width 0.5) (layer B.Cu) (net 8))
  (segment (start 46.228 112.522) (end 45.085 113.665) (width 0.5) (layer B.Cu) (net 8))
  (segment (start 62.73 121.285) (end 60.96 121.285) (width 0.5) (layer B.Cu) (net 9))
  (segment (start 72.255 130.81) (end 62.73 121.285) (width 0.5) (layer B.Cu) (net 9))
  (segment (start 114.3 128.27) (end 111.76 130.81) (width 0.5) (layer B.Cu) (net 9))
  (segment (start 111.76 130.81) (end 72.255 130.81) (width 0.5) (layer B.Cu) (net 9))
  (segment (start 114.3 127) (end 114.3 128.27) (width 0.5) (layer B.Cu) (net 9))
  (segment (start 66.04 97.787208) (end 66.04 99.06) (width 1) (layer F.Cu) (net 23))
  (segment (start 67.307208 96.52) (end 66.04 97.787208) (width 1) (layer F.Cu) (net 23))
  (segment (start 109.22 99.06) (end 106.68 96.52) (width 1) (layer F.Cu) (net 23))
  (segment (start 109.22 104.14) (end 109.22 99.06) (width 1) (layer F.Cu) (net 23))
  (segment (start 78.74 96.52) (end 78.74 99.06) (width 1) (layer F.Cu) (net 23))
  (segment (start 78.74 96.52) (end 67.307208 96.52) (width 1) (layer F.Cu) (net 23))
  (segment (start 91.44 96.52) (end 91.44 99.06) (width 1) (layer F.Cu) (net 23))
  (segment (start 91.44 96.52) (end 78.74 96.52) (width 1) (layer F.Cu) (net 23))
  (segment (start 106.68 96.52) (end 91.44 96.52) (width 1) (layer F.Cu) (net 23))
  (segment (start 91.44 99.06) (end 87.63 99.06) (width 1) (layer B.Cu) (net 23))
  (segment (start 86.36 100.33) (end 86.36 104.14) (width 1) (layer B.Cu) (net 23))
  (segment (start 87.63 99.06) (end 86.36 100.33) (width 1) (layer B.Cu) (net 23))
  (segment (start 38.735 121.285) (end 38.1 121.285) (width 1) (layer F.Cu) (net 23))
  (segment (start 78.74 127) (end 78.74 127.635) (width 1) (layer F.Cu) (net 23))
  (segment (start 46.99 129.54) (end 38.735 121.285) (width 1) (layer F.Cu) (net 23))
  (segment (start 76.835 129.54) (end 46.99 129.54) (width 1) (layer F.Cu) (net 23))
  (segment (start 78.74 127.635) (end 76.835 129.54) (width 1) (layer F.Cu) (net 23))
  (segment (start 97.79 116.84) (end 92.71 116.84) (width 1) (layer B.Cu) (net 23))
  (segment (start 109.22 104.14) (end 109.22 105.41) (width 1) (layer B.Cu) (net 23))
  (segment (start 109.22 105.41) (end 97.79 116.84) (width 1) (layer B.Cu) (net 23))
  (segment (start 78.74 124.46) (end 78.74 127) (width 1) (layer F.Cu) (net 23))
  (segment (start 80.01 123.19) (end 78.74 124.46) (width 1) (layer F.Cu) (net 23))
  (segment (start 87.63 119.38) (end 83.82 123.19) (width 1) (layer F.Cu) (net 23))
  (segment (start 83.82 123.19) (end 80.01 123.19) (width 1) (layer F.Cu) (net 23))
  (segment (start 92.71 116.84) (end 90.17 116.84) (width 1) (layer F.Cu) (net 23))
  (segment (start 90.17 116.84) (end 87.63 119.38) (width 1) (layer F.Cu) (net 23))
  (segment (start 62.865 111.125) (end 60.96 111.125) (width 0.5) (layer B.Cu) (net 24))
  (segment (start 65.405 108.585) (end 62.865 111.125) (width 0.5) (layer B.Cu) (net 24))
  (segment (start 88.765 108.585) (end 65.405 108.585) (width 0.5) (layer B.Cu) (net 24))
  (segment (start 91.44 104.14) (end 91.44 105.91) (width 0.5) (layer B.Cu) (net 24))
  (segment (start 91.44 105.91) (end 88.765 108.585) (width 0.5) (layer B.Cu) (net 24))
  (segment (start 63.5 108.585) (end 60.96 108.585) (width 0.5) (layer B.Cu) (net 25))
  (segment (start 64.77 107.315) (end 63.5 108.585) (width 0.5) (layer B.Cu) (net 25))
  (segment (start 86.995 107.315) (end 64.77 107.315) (width 0.5) (layer B.Cu) (net 25))
  (segment (start 88.9 104.14) (end 88.9 105.41) (width 0.5) (layer B.Cu) (net 25))
  (segment (start 88.9 105.41) (end 86.995 107.315) (width 0.5) (layer B.Cu) (net 25))
  (segment (start 119.38 109.22) (end 124.46 109.22) (width 0.5) (layer B.Cu) (net 35))
  (segment (start 127 106.68) (end 127 104.14) (width 0.5) (layer B.Cu) (net 35))
  (segment (start 124.46 109.22) (end 127 106.68) (width 0.5) (layer B.Cu) (net 35))
  (segment (start 114.3 114.3) (end 114.3 104.14) (width 0.5) (layer B.Cu) (net 36))
  (segment (start 111.76 119.38) (end 111.76 104.14) (width 0.5) (layer B.Cu) (net 37))
  (segment (start 107.95 107.95) (end 109.22 109.22) (width 0.5) (layer F.Cu) (net 38))
  (segment (start 107.95 100.33) (end 107.95 107.95) (width 0.5) (layer F.Cu) (net 38))
  (segment (start 93.98 99.06) (end 106.68 99.06) (width 0.5) (layer F.Cu) (net 38))
  (segment (start 106.68 99.06) (end 107.95 100.33) (width 0.5) (layer F.Cu) (net 38))
  (segment (start 82.68 99.06) (end 84.585 100.965) (width 0.5) (layer F.Cu) (net 39))
  (segment (start 81.28 99.06) (end 82.68 99.06) (width 0.5) (layer F.Cu) (net 39))
  (segment (start 84.585 100.965) (end 101.6 100.965) (width 0.5) (layer F.Cu) (net 39))
  (segment (start 103.340001 113.500001) (end 104.14 114.3) (width 0.5) (layer F.Cu) (net 39))
  (segment (start 102.95499 113.11499) (end 103.340001 113.500001) (width 0.5) (layer F.Cu) (net 39))
  (segment (start 102.95499 102.31999) (end 102.95499 113.11499) (width 0.5) (layer F.Cu) (net 39))
  (segment (start 101.6 100.965) (end 102.95499 102.31999) (width 0.5) (layer F.Cu) (net 39))
  (segment (start 100.800001 118.580001) (end 101.6 119.38) (width 0.5) (layer F.Cu) (net 40))
  (segment (start 68.58 99.06) (end 69.98 99.06) (width 0.5) (layer F.Cu) (net 40))
  (segment (start 69.98 99.06) (end 72.68501 101.76501) (width 0.5) (layer F.Cu) (net 40))
  (segment (start 72.68501 101.76501) (end 97.32001 101.76501) (width 0.5) (layer F.Cu) (net 40))
  (segment (start 97.87499 115.65499) (end 100.800001 118.580001) (width 0.5) (layer F.Cu) (net 40))
  (segment (start 97.32001 101.76501) (end 97.87499 102.31999) (width 0.5) (layer F.Cu) (net 40))
  (segment (start 97.87499 102.31999) (end 97.87499 115.65499) (width 0.5) (layer F.Cu) (net 40))

)
