EESchema Schematic File Version 4
LIBS:PflanzenServer_LOLIN32-cache
EELAYER 26 0
EELAYER END
$Descr A4 11693 8268
encoding utf-8
Sheet 1 1
Title "PflanzenServer_LOLIN32_V4"
Date "2020-04-14"
Rev ""
Comp ""
Comment1 ""
Comment2 ""
Comment3 ""
Comment4 ""
$EndDescr
$Comp
L 123:Wemos_LoLin32 U1
U 1 1 5E96162B
P 3900 3050
F 0 "U1" H 3900 4655 60  0000 C CNN
F 1 "Wemos_LoLin32" H 3900 4541 71  0000 C CNN
F 2 "Wemos:LoLin_32_Board" H 5550 2600 60  0001 C CNN
F 3 "" H 5550 2600 60  0000 C CNN
	1    3900 3050
	1    0    0    -1  
$EndComp
$Comp
L 123:WeMos_D1_Logger U2
U 1 1 5E9627B0
P 7800 4150
F 0 "U2" H 7800 5149 50  0000 C CNN
F 1 "WeMos_D1_Logger" H 7800 5042 71  0000 C CNN
F 2 "Wemos:WEMOS_D1_DataLogger" H 7800 3000 50  0001 C CNN
F 3 "https://wiki.wemos.cc/products:d1:d1_mini#documentation" H 5950 3000 50  0001 C CNN
	1    7800 4150
	1    0    0    -1  
$EndComp
Wire Wire Line
	7300 4050 6250 4050
Wire Wire Line
	6250 4050 6250 3300
Wire Wire Line
	6250 3300 4500 3300
Wire Wire Line
	7300 4200 6400 4200
Wire Wire Line
	6400 4200 6400 3000
Wire Wire Line
	6400 3000 4500 3000
Wire Wire Line
	7300 4350 6100 4350
Wire Wire Line
	6100 4350 6100 3150
Wire Wire Line
	6100 3150 4500 3150
Wire Wire Line
	7300 4500 5950 4500
Wire Wire Line
	5950 4500 5950 3450
Wire Wire Line
	5950 3450 4500 3450
$Comp
L 123:GND #PWR0101
U 1 1 5E963FA2
P 4650 4350
F 0 "#PWR0101" V 4695 4241 10  0001 L CNN
F 1 "GND" V 4645 4241 50  0000 R CNN
F 2 "" H 4650 4350 50  0001 C CNN
F 3 "" H 4650 4350 50  0001 C CNN
	1    4650 4350
	0    -1   -1   0   
$EndComp
$Comp
L 123:GND #PWR0102
U 1 1 5E96402B
P 4650 2700
F 0 "#PWR0102" V 4695 2591 0   0000 L CNN
F 1 "GND" V 4645 2591 50  0000 R CNN
F 2 "" H 4650 2700 50  0001 C CNN
F 3 "" H 4650 2700 50  0001 C CNN
	1    4650 2700
	0    -1   -1   0   
$EndComp
$Comp
L 123:GND #PWR0103
U 1 1 5E96413A
P 4650 2850
F 0 "#PWR0103" V 4695 2741 0   0000 L CNN
F 1 "GND" V 4645 2741 50  0000 R CNN
F 2 "" H 4650 2850 50  0001 C CNN
F 3 "" H 4650 2850 50  0001 C CNN
	1    4650 2850
	0    -1   -1   0   
$EndComp
$Comp
L 123:GND #PWR0104
U 1 1 5E9642A3
P 3150 4050
F 0 "#PWR0104" V 3105 3940 0   0000 R CNN
F 1 "GND" V 3155 3940 50  0000 R CNN
F 2 "" H 3150 4050 50  0001 C CNN
F 3 "" H 3150 4050 50  0001 C CNN
	1    3150 4050
	0    1    1    0   
$EndComp
$Comp
L 123:GND #PWR0105
U 1 1 5E9645C8
P 8450 4500
F 0 "#PWR0105" V 8495 4391 0   0000 L CNN
F 1 "GND" V 8445 4391 50  0000 R CNN
F 2 "" H 8450 4500 50  0001 C CNN
F 3 "" H 8450 4500 50  0001 C CNN
	1    8450 4500
	0    -1   -1   0   
$EndComp
$Comp
L 123:GND #PWR0106
U 1 1 5E964D77
P 4650 1800
F 0 "#PWR0106" V 4695 1691 0   0000 L CNN
F 1 "GND" V 4645 1691 50  0000 R CNN
F 2 "" H 4650 1800 50  0001 C CNN
F 3 "" H 4650 1800 50  0001 C CNN
	1    4650 1800
	0    -1   -1   0   
$EndComp
$Comp
L 123:+5V #PWR0107
U 1 1 5E9650BB
P 8450 4650
F 0 "#PWR0107" H 8450 4500 50  0001 C CNN
F 1 "+5V" V 8450 4777 50  0000 L CNN
F 2 "" H 8450 4650 50  0001 C CNN
F 3 "" H 8450 4650 50  0001 C CNN
	1    8450 4650
	0    1    1    0   
$EndComp
$Comp
L 123:+5V #PWR0108
U 1 1 5E965378
P 3150 3900
F 0 "#PWR0108" H 3150 3750 50  0001 C CNN
F 1 "+5V" V 3150 4028 50  0000 L CNN
F 2 "" H 3150 3900 50  0001 C CNN
F 3 "" H 3150 3900 50  0001 C CNN
	1    3150 3900
	0    -1   -1   0   
$EndComp
$Comp
L 123:+3.3V #PWR0109
U 1 1 5E96978B
P 7150 4650
F 0 "#PWR0109" H 7150 4500 50  0001 C CNN
F 1 "+3.3V" V 7150 4778 50  0000 L CNN
F 2 "" H 7150 4650 60  0000 C CNN
F 3 "" H 7150 4650 60  0000 C CNN
	1    7150 4650
	0    -1   -1   0   
$EndComp
$Comp
L 123:+3.3V #PWR0110
U 1 1 5E96981D
P 4650 2250
F 0 "#PWR0110" H 4650 2100 50  0001 C CNN
F 1 "+3.3V" V 4650 2377 50  0000 L CNN
F 2 "" H 4650 2250 60  0000 C CNN
F 3 "" H 4650 2250 60  0000 C CNN
	1    4650 2250
	0    1    1    0   
$EndComp
$Comp
L 123:+3.3V #PWR0111
U 1 1 5E96988F
P 3150 1800
F 0 "#PWR0111" H 3150 1650 50  0001 C CNN
F 1 "+3.3V" V 3150 1928 50  0000 L CNN
F 2 "" H 3150 1800 60  0000 C CNN
F 3 "" H 3150 1800 60  0000 C CNN
	1    3150 1800
	0    -1   -1   0   
$EndComp
Wire Wire Line
	8300 3900 8600 3900
Wire Wire Line
	8600 3900 8600 2400
Wire Wire Line
	8600 2400 4500 2400
Wire Wire Line
	8300 4050 8750 4050
Wire Wire Line
	8750 4050 8750 2550
Wire Wire Line
	8750 2550 4500 2550
Wire Wire Line
	3150 1800 3300 1800
Wire Wire Line
	4650 1800 4500 1800
Wire Wire Line
	4650 2250 4500 2250
Wire Wire Line
	4650 2700 4500 2700
Wire Wire Line
	4650 4350 4500 4350
Wire Wire Line
	3150 3900 3300 3900
Wire Wire Line
	3150 4050 3300 4050
Wire Wire Line
	7150 4650 7300 4650
Wire Wire Line
	8450 4650 8300 4650
Wire Wire Line
	8450 4500 8300 4500
$Comp
L 123:+3.3V #PWR0112
U 1 1 5E975646
P 4650 3600
F 0 "#PWR0112" H 4650 3450 50  0001 C CNN
F 1 "+3.3V" V 4650 3728 50  0000 L CNN
F 2 "" H 4650 3600 60  0000 C CNN
F 3 "" H 4650 3600 60  0000 C CNN
	1    4650 3600
	0    1    1    0   
$EndComp
Wire Wire Line
	4650 3600 4500 3600
$Comp
L Device:LED D1
U 1 1 5E9820B7
P 4750 5900
F 0 "D1" V 4695 5978 50  0000 L CNN
F 1 "Blue" V 4786 5978 50  0000 L CNN
F 2 "LED_THT:LED_D5.0mm_Clear" H 4750 5900 50  0001 C CNN
F 3 "~" H 4750 5900 50  0001 C CNN
	1    4750 5900
	0    1    1    0   
$EndComp
$Comp
L Device:LED D2
U 1 1 5E982180
P 5300 5900
F 0 "D2" V 5245 5978 50  0000 L CNN
F 1 "Blue" V 5336 5978 50  0000 L CNN
F 2 "LED_THT:LED_D5.0mm_Clear" H 5300 5900 50  0001 C CNN
F 3 "~" H 5300 5900 50  0001 C CNN
	1    5300 5900
	0    1    1    0   
$EndComp
$Comp
L Device:LED D3
U 1 1 5E982213
P 5800 5900
F 0 "D3" V 5745 5978 50  0000 L CNN
F 1 "Green" V 5836 5978 50  0000 L CNN
F 2 "LED_THT:LED_D5.0mm_Clear" H 5800 5900 50  0001 C CNN
F 3 "~" H 5800 5900 50  0001 C CNN
	1    5800 5900
	0    1    1    0   
$EndComp
$Comp
L 123:+3.3V #PWR0113
U 1 1 5E986D96
P 4250 6250
F 0 "#PWR0113" H 4250 6100 50  0001 C CNN
F 1 "+3.3V" V 4250 6378 50  0000 L CNN
F 2 "" H 4250 6250 60  0000 C CNN
F 3 "" H 4250 6250 60  0000 C CNN
	1    4250 6250
	0    -1   -1   0   
$EndComp
Wire Wire Line
	4250 6250 4750 6250
Wire Wire Line
	4750 6250 4750 6050
Wire Wire Line
	4750 6250 5300 6250
Wire Wire Line
	5300 6250 5300 6050
Connection ~ 4750 6250
Wire Wire Line
	5300 6250 5800 6250
Wire Wire Line
	5800 6250 5800 6050
Connection ~ 5300 6250
$Comp
L 123:R R3
U 1 1 5E988992
P 5800 5300
F 0 "R3" H 5870 5346 50  0000 L CNN
F 1 "820" H 5870 5255 50  0000 L CNN
F 2 "Resistor_THT:R_Axial_DIN0207_L6.3mm_D2.5mm_P10.16mm_Horizontal" V 5730 5300 50  0001 C CNN
F 3 "~" H 5800 5300 50  0001 C CNN
	1    5800 5300
	1    0    0    -1  
$EndComp
$Comp
L 123:R R2
U 1 1 5E9889ED
P 5300 5300
F 0 "R2" H 5370 5346 50  0000 L CNN
F 1 "220" H 5370 5255 50  0000 L CNN
F 2 "Resistor_THT:R_Axial_DIN0207_L6.3mm_D2.5mm_P10.16mm_Horizontal" V 5230 5300 50  0001 C CNN
F 3 "~" H 5300 5300 50  0001 C CNN
	1    5300 5300
	1    0    0    -1  
$EndComp
$Comp
L 123:R R1
U 1 1 5E988A3B
P 4750 5300
F 0 "R1" H 4820 5346 50  0000 L CNN
F 1 "220" H 4820 5255 50  0000 L CNN
F 2 "Resistor_THT:R_Axial_DIN0207_L6.3mm_D2.5mm_P10.16mm_Horizontal" V 4680 5300 50  0001 C CNN
F 3 "~" H 4750 5300 50  0001 C CNN
	1    4750 5300
	1    0    0    -1  
$EndComp
Wire Wire Line
	5800 5750 5800 5450
Wire Wire Line
	5300 5750 5300 5450
Wire Wire Line
	4750 5750 4750 5450
Wire Wire Line
	4750 5150 4750 4650
Wire Wire Line
	4750 4650 4500 4650
Wire Wire Line
	5300 5150 5300 3900
Wire Wire Line
	5300 3900 4500 3900
Wire Wire Line
	5800 5150 5800 3750
Wire Wire Line
	5800 3750 4500 3750
Text Notes 4650 6400 0    50   ~ 0
Core1
Text Notes 5200 6400 0    50   ~ 0
Core0
Text Notes 5600 6400 0    50   ~ 0
Green_Fade
Wire Wire Line
	4650 2850 4500 2850
$Comp
L 123:CP C1
U 1 1 5E98EB68
P 7250 5750
F 0 "C1" H 7368 5796 50  0000 L CNN
F 1 "82µ/16" H 7368 5705 50  0000 L CNN
F 2 "Capacitor_THT:CP_Radial_D5.0mm_P2.50mm" H 7288 5600 50  0001 C CNN
F 3 "~" H 7250 5750 50  0001 C CNN
	1    7250 5750
	1    0    0    -1  
$EndComp
$Comp
L 123:C C2
U 1 1 5E98ECC9
P 7900 5750
F 0 "C2" H 8015 5796 50  0000 L CNN
F 1 "MKS 100n" H 8015 5705 50  0000 L CNN
F 2 "Capacitor_THT:C_Rect_L7.2mm_W2.5mm_P5.00mm_FKS2_FKP2_MKS2_MKP2" H 7938 5600 50  0001 C CNN
F 3 "~" H 7900 5750 50  0001 C CNN
	1    7900 5750
	1    0    0    -1  
$EndComp
$Comp
L 123:+3.3V #PWR0114
U 1 1 5E98EEED
P 6950 5350
F 0 "#PWR0114" H 6950 5200 50  0001 C CNN
F 1 "+3.3V" V 6950 5478 50  0000 L CNN
F 2 "" H 6950 5350 60  0000 C CNN
F 3 "" H 6950 5350 60  0000 C CNN
	1    6950 5350
	0    -1   -1   0   
$EndComp
$Comp
L 123:GND #PWR0115
U 1 1 5E98EF25
P 6900 6200
F 0 "#PWR0115" V 6945 6091 0   0000 L CNN
F 1 "GND" V 6895 6091 50  0000 R CNN
F 2 "" H 6900 6200 50  0001 C CNN
F 3 "" H 6900 6200 50  0001 C CNN
	1    6900 6200
	0    1    1    0   
$EndComp
Wire Wire Line
	6950 5350 7250 5350
Wire Wire Line
	7250 5350 7250 5600
Wire Wire Line
	7250 5350 7900 5350
Wire Wire Line
	7900 5350 7900 5600
Connection ~ 7250 5350
Wire Wire Line
	6900 6200 7250 6200
Wire Wire Line
	7250 6200 7250 5900
Wire Wire Line
	7250 6200 7900 6200
Wire Wire Line
	7900 6200 7900 5900
Connection ~ 7250 6200
Text Notes 8950 3600 0    63   ~ 0
DS1307
Text Notes 8950 3800 0    50   ~ 0
D1 = SCL\nD2 = SDA
Text Notes 8950 3950 0    63   ~ 0
SD-CARD
Text Notes 8950 4300 0    50   ~ 0
D5 = CLK\nD6 = DO\nD7 = DI\nD8 = CS
$EndSCHEMATC
