(module D1_Logger (layer F.Cu) (tedit 5E96E9A0)
  (fp_text reference REF** (at 1.27 18.81) (layer F.SilkS)
    (effects (font (size 1 1) (thickness 0.15)))
  )
  (fp_text value D1_Logger (at 1.27 -19.05) (layer F.Fab)
    (effects (font (size 1 1) (thickness 0.15)))
  )
  (fp_text user WeMos (at 0 -15.24) (layer F.SilkS)
    (effects (font (size 3 3) (thickness 0.15)))
  )
  (fp_line (start -6.35 3.81) (end -6.35 -10.16) (layer B.SilkS) (width 0.15))
  (fp_line (start -6.35 -10.16) (end 6.35 -10.16) (layer B.SilkS) (width 0.15))
  (fp_line (start 6.35 -10.16) (end 6.35 3.81) (layer B.SilkS) (width 0.15))
  (fp_line (start 6.35 3.81) (end -6.35 3.81) (layer B.SilkS) (width 0.15))
  (fp_line (start -8.89 5.08) (end 8.89 5.08) (layer B.SilkS) (width 0.15))
  (fp_line (start 8.89 5.08) (end 8.89 -17.78) (layer B.SilkS) (width 0.15))
  (fp_line (start 8.89 -17.78) (end -8.89 -17.78) (layer B.SilkS) (width 0.15))
  (fp_line (start -8.89 -17.78) (end -8.89 5.08) (layer B.SilkS) (width 0.15))
  (fp_line (start 10.817472 16.277228) (end 5.00618 16.277228) (layer F.SilkS) (width 0.1))
  (fp_line (start 5.00618 16.277228) (end 4.979849 14.993795) (layer F.SilkS) (width 0.1))
  (fp_line (start 4.979849 14.993795) (end -3.851373 15.000483) (layer F.SilkS) (width 0.1))
  (fp_line (start -3.851373 15.000483) (end -3.849397 16.202736) (layer F.SilkS) (width 0.1))
  (fp_line (start -3.849397 16.202736) (end -12.930193 16.176658) (layer F.SilkS) (width 0.1))
  (fp_line (start -12.930193 16.176658) (end -12.916195 -14.993493) (layer F.SilkS) (width 0.1))
  (fp_line (start -12.916195 -14.993493) (end -12.683384 -15.596286) (layer F.SilkS) (width 0.1))
  (fp_line (start -12.683384 -15.596286) (end -12.399901 -16.141167) (layer F.SilkS) (width 0.1))
  (fp_line (start -12.399901 -16.141167) (end -12.065253 -16.627577) (layer F.SilkS) (width 0.1))
  (fp_line (start -12.065253 -16.627577) (end -11.678953 -17.054952) (layer F.SilkS) (width 0.1))
  (fp_line (start -11.678953 -17.054952) (end -11.240512 -17.422741) (layer F.SilkS) (width 0.1))
  (fp_line (start -11.240512 -17.422741) (end -10.74944 -17.730377) (layer F.SilkS) (width 0.1))
  (fp_line (start -10.74944 -17.730377) (end -10.20525 -17.97731) (layer F.SilkS) (width 0.1))
  (fp_line (start -10.20525 -17.97731) (end -9.607453 -18.162976) (layer F.SilkS) (width 0.1))
  (fp_line (start -9.607453 -18.162976) (end 9.43046 -18.191734) (layer F.SilkS) (width 0.1))
  (fp_line (start 9.43046 -18.191734) (end 10.049824 -17.957741) (layer F.SilkS) (width 0.1))
  (fp_line (start 10.049824 -17.957741) (end 10.638018 -17.673258) (layer F.SilkS) (width 0.1))
  (fp_line (start 10.638018 -17.673258) (end 11.181445 -17.323743) (layer F.SilkS) (width 0.1))
  (fp_line (start 11.181445 -17.323743) (end 11.666503 -16.894658) (layer F.SilkS) (width 0.1))
  (fp_line (start 11.666503 -16.894658) (end 12.079595 -16.37146) (layer F.SilkS) (width 0.1))
  (fp_line (start 12.079595 -16.37146) (end 12.407122 -15.739613) (layer F.SilkS) (width 0.1))
  (fp_line (start 12.407122 -15.739613) (end 12.635482 -14.984575) (layer F.SilkS) (width 0.1))
  (fp_line (start 12.635482 -14.984575) (end 12.751078 -14.091807) (layer F.SilkS) (width 0.1))
  (fp_line (start 12.751078 -14.091807) (end 12.776026 8.463285) (layer F.SilkS) (width 0.1))
  (fp_line (start 12.776026 8.463285) (end 10.83248 9.424181) (layer F.SilkS) (width 0.1))
  (fp_line (start 10.83248 9.424181) (end 10.802686 16.232524) (layer F.SilkS) (width 0.1))
  (fp_line (start -3.17965 10.051451) (end 3.959931 10.051451) (layer F.SilkS) (width 0.1))
  (fp_line (start 3.959931 10.051451) (end 3.959931 15.865188) (layer F.SilkS) (width 0.1))
  (fp_line (start 3.959931 15.865188) (end -3.17965 15.865188) (layer F.SilkS) (width 0.1))
  (fp_line (start -3.17965 15.865188) (end -3.17965 10.051451) (layer F.SilkS) (width 0.1))
  (fp_line (start 10.7436 9.402349) (end 9.191378 9.402349) (layer F.SilkS) (width 0.1))
  (fp_line (start 9.191378 9.402349) (end 8.662211 9.931515) (layer F.SilkS) (width 0.1))
  (fp_line (start 8.662211 9.931515) (end 7.40985 9.931515) (layer F.SilkS) (width 0.1))
  (fp_line (start 7.40985 9.931515) (end 7.40985 14.993876) (layer F.SilkS) (width 0.1))
  (fp_line (start 7.40985 14.993876) (end 8.697489 14.993876) (layer F.SilkS) (width 0.1))
  (fp_line (start 8.697489 14.993876) (end 9.226656 15.487765) (layer F.SilkS) (width 0.1))
  (fp_line (start 9.226656 15.487765) (end 10.796517 15.487765) (layer F.SilkS) (width 0.1))
  (fp_line (start 10.796517 15.487765) (end 10.7436 9.402349) (layer F.SilkS) (width 0.1))
  (fp_line (start 10.778878 11.483738) (end 11.431517 11.483738) (layer F.SilkS) (width 0.1))
  (fp_line (start 11.431517 11.483738) (end 11.431517 13.476932) (layer F.SilkS) (width 0.1))
  (fp_line (start 11.431517 13.476932) (end 10.814156 13.476932) (layer F.SilkS) (width 0.1))
  (pad 8 thru_hole circle (at -11.43 -10.16) (size 1.8 1.8) (drill 1.016) (layers *.Cu *.Mask F.SilkS))
  (pad 7 thru_hole circle (at -11.43 -7.62) (size 1.8 1.8) (drill 1.016) (layers *.Cu *.Mask F.SilkS))
  (pad 6 thru_hole circle (at -11.43 -5.08) (size 1.8 1.8) (drill 1.016) (layers *.Cu *.Mask F.SilkS))
  (pad 5 thru_hole circle (at -11.43 -2.54) (size 1.8 1.8) (drill 1.016) (layers *.Cu *.Mask F.SilkS))
  (pad 4 thru_hole circle (at -11.43 0) (size 1.8 1.8) (drill 1.016) (layers *.Cu *.Mask F.SilkS))
  (pad 3 thru_hole circle (at -11.43 2.54) (size 1.8 1.8) (drill 1.016) (layers *.Cu *.Mask F.SilkS))
  (pad 2 thru_hole circle (at -11.43 5.08) (size 1.8 1.8) (drill 1.016) (layers *.Cu *.Mask F.SilkS))
  (pad 1 thru_hole circle (at -11.43 7.62) (size 1.8 1.8) (drill 1.016) (layers *.Cu *.Mask F.SilkS))
  (pad 16 thru_hole circle (at 11.43 7.62) (size 1.8 1.8) (drill 1.016) (layers *.Cu *.Mask F.SilkS))
  (pad 15 thru_hole circle (at 11.43 5.08) (size 1.8 1.8) (drill 1.016) (layers *.Cu *.Mask F.SilkS))
  (pad 14 thru_hole circle (at 11.43 2.54) (size 1.8 1.8) (drill 1.016) (layers *.Cu *.Mask F.SilkS))
  (pad 13 thru_hole circle (at 11.43 0) (size 1.8 1.8) (drill 1.016) (layers *.Cu *.Mask F.SilkS))
  (pad 12 thru_hole circle (at 11.43 -2.54) (size 1.8 1.8) (drill 1.016) (layers *.Cu *.Mask F.SilkS))
  (pad 11 thru_hole circle (at 11.43 -5.08) (size 1.8 1.8) (drill 1.016) (layers *.Cu *.Mask F.SilkS))
  (pad 10 thru_hole circle (at 11.43 -7.62) (size 1.8 1.8) (drill 1.016) (layers *.Cu *.Mask F.SilkS))
  (pad 9 thru_hole circle (at 11.43 -10.16) (size 1.8 1.8) (drill 1.016) (layers *.Cu *.Mask F.SilkS))
)
